^D:\CODING\QTPROJECTS\TIC-TAC-TOE\TIC-TAC-TOE\MAIN.CPP
C:\PROGRAM FILES\MICROSOFT VISUAL STUDIO\2022\COMMUNITY\VC\TOOLS\MSVC\14.36.32532\BIN\HOSTX64\X64\MSPDBSRV.EXE
D:\CODING\QTPROJECTS\TIC-TAC-TOE\TIC-TAC-TOE\TICTACTOE.H
D:\PROGRAMM FILES\QT\6.2.4\MSVC2019_64\INCLUDE\QTWIDGETS\QWIDGET
D:\PROGRAMM FILES\QT\6.2.4\MSVC2019_64\INCLUDE\QTWIDGETS\QWIDGET.H
D:\PROGRAMM FILES\QT\6.2.4\MSVC2019_64\INCLUDE\QTWIDGETS\QTWIDGETSGLOBAL.H
D:\PROGRAMM FILES\QT\6.2.4\MSVC2019_64\INCLUDE\QTGUI\QTGUIGLOBAL.H
D:\PROGRAMM FILES\QT\6.2.4\MSVC2019_64\INCLUDE\QTCORE\QGLOBAL.H
C:\PROGRAM FILES\MICROSOFT VISUAL STUDIO\2022\COMMUNITY\VC\TOOLS\MSVC\14.36.32532\INCLUDE\TYPE_TRAITS
C:\PROGRAM FILES\MICROSOFT VISUAL STUDIO\2022\COMMUNITY\VC\TOOLS\MSVC\14.36.32532\INCLUDE\YVALS_CORE.H
C:\PROGRAM FILES\MICROSOFT VISUAL STUDIO\2022\COMMUNITY\VC\TOOLS\MSVC\14.36.32532\INCLUDE\VCRUNTIME.H
C:\PROGRAM FILES\MICROSOFT VISUAL STUDIO\2022\COMMUNITY\VC\TOOLS\MSVC\14.36.32532\INCLUDE\SAL.H
C:\PROGRAM FILES\MICROSOFT VISUAL STUDIO\2022\COMMUNITY\VC\TOOLS\MSVC\14.36.32532\INCLUDE\CONCURRENCYSAL.H
C:\PROGRAM FILES\MICROSOFT VISUAL STUDIO\2022\COMMUNITY\VC\TOOLS\MSVC\14.36.32532\INCLUDE\VADEFS.H
C:\PROGRAM FILES\MICROSOFT VISUAL STUDIO\2022\COMMUNITY\VC\TOOLS\MSVC\14.36.32532\INCLUDE\XKEYCHECK.H
C:\PROGRAM FILES\MICROSOFT VISUAL STUDIO\2022\COMMUNITY\VC\TOOLS\MSVC\14.36.32532\INCLUDE\CSTDINT
C:\PROGRAM FILES\MICROSOFT VISUAL STUDIO\2022\COMMUNITY\VC\TOOLS\MSVC\14.36.32532\INCLUDE\STDINT.H
C:\PROGRAM FILES\MICROSOFT VISUAL STUDIO\2022\COMMUNITY\VC\TOOLS\MSVC\14.36.32532\INCLUDE\XSTDDEF
C:\PROGRAM FILES\MICROSOFT VISUAL STUDIO\2022\COMMUNITY\VC\TOOLS\MSVC\14.36.32532\INCLUDE\CSTDDEF
C:\PROGRAM FILES (X86)\WINDOWS KITS\10\INCLUDE\10.0.22000.0\UCRT\STDDEF.H
C:\PROGRAM FILES (X86)\WINDOWS KITS\10\INCLUDE\10.0.22000.0\UCRT\CORECRT.H
C:\PROGRAM FILES\MICROSOFT VISUAL STUDIO\2022\COMMUNITY\VC\TOOLS\MSVC\14.36.32532\INCLUDE\XTR1COMMON
C:\PROGRAM FILES\MICROSOFT VISUAL STUDIO\2022\COMMUNITY\VC\TOOLS\MSVC\14.36.32532\INCLUDE\CSTDLIB
C:\PROGRAM FILES (X86)\WINDOWS KITS\10\INCLUDE\10.0.22000.0\UCRT\MATH.H
C:\PROGRAM FILES (X86)\WINDOWS KITS\10\INCLUDE\10.0.22000.0\UCRT\CORECRT_MATH.H
C:\PROGRAM FILES (X86)\WINDOWS KITS\10\INCLUDE\10.0.22000.0\UCRT\STDLIB.H
C:\PROGRAM FILES (X86)\WINDOWS KITS\10\INCLUDE\10.0.22000.0\UCRT\CORECRT_MALLOC.H
C:\PROGRAM FILES (X86)\WINDOWS KITS\10\INCLUDE\10.0.22000.0\UCRT\CORECRT_SEARCH.H
C:\PROGRAM FILES (X86)\WINDOWS KITS\10\INCLUDE\10.0.22000.0\UCRT\CORECRT_WSTDLIB.H
C:\PROGRAM FILES\MICROSOFT VISUAL STUDIO\2022\COMMUNITY\VC\TOOLS\MSVC\14.36.32532\INCLUDE\LIMITS.H
C:\PROGRAM FILES\MICROSOFT VISUAL STUDIO\2022\COMMUNITY\VC\TOOLS\MSVC\14.36.32532\INCLUDE\INITIALIZER_LIST
C:\PROGRAM FILES\MICROSOFT VISUAL STUDIO\2022\COMMUNITY\VC\TOOLS\MSVC\14.36.32532\INCLUDE\UTILITY
C:\PROGRAM FILES (X86)\WINDOWS KITS\10\INCLUDE\10.0.22000.0\UCRT\ASSERT.H
D:\PROGRAMM FILES\QT\6.2.4\MSVC2019_64\INCLUDE\QTCORE\QCONFIG.H
D:\PROGRAMM FILES\QT\6.2.4\MSVC2019_64\INCLUDE\QTCORE\QTCORE-CONFIG.H
D:\PROGRAMM FILES\QT\6.2.4\MSVC2019_64\INCLUDE\QTCORE\QSYSTEMDETECTION.H
D:\PROGRAMM FILES\QT\6.2.4\MSVC2019_64\INCLUDE\QTCORE\QPROCESSORDETECTION.H
D:\PROGRAMM FILES\QT\6.2.4\MSVC2019_64\INCLUDE\QTCORE\QCOMPILERDETECTION.H
C:\PROGRAM FILES\MICROSOFT VISUAL STUDIO\2022\COMMUNITY\VC\TOOLS\MSVC\14.36.32532\INCLUDE\ALGORITHM
C:\PROGRAM FILES\MICROSOFT VISUAL STUDIO\2022\COMMUNITY\VC\TOOLS\MSVC\14.36.32532\INCLUDE\XMEMORY
C:\PROGRAM FILES\MICROSOFT VISUAL STUDIO\2022\COMMUNITY\VC\TOOLS\MSVC\14.36.32532\INCLUDE\LIMITS
C:\PROGRAM FILES\MICROSOFT VISUAL STUDIO\2022\COMMUNITY\VC\TOOLS\MSVC\14.36.32532\INCLUDE\CFLOAT
C:\PROGRAM FILES (X86)\WINDOWS KITS\10\INCLUDE\10.0.22000.0\UCRT\FLOAT.H
C:\PROGRAM FILES\MICROSOFT VISUAL STUDIO\2022\COMMUNITY\VC\TOOLS\MSVC\14.36.32532\INCLUDE\CLIMITS
C:\PROGRAM FILES\MICROSOFT VISUAL STUDIO\2022\COMMUNITY\VC\TOOLS\MSVC\14.36.32532\INCLUDE\CWCHAR
C:\PROGRAM FILES\MICROSOFT VISUAL STUDIO\2022\COMMUNITY\VC\TOOLS\MSVC\14.36.32532\INCLUDE\CSTDIO
C:\PROGRAM FILES (X86)\WINDOWS KITS\10\INCLUDE\10.0.22000.0\UCRT\STDIO.H
C:\PROGRAM FILES (X86)\WINDOWS KITS\10\INCLUDE\10.0.22000.0\UCRT\CORECRT_WSTDIO.H
C:\PROGRAM FILES (X86)\WINDOWS KITS\10\INCLUDE\10.0.22000.0\UCRT\CORECRT_STDIO_CONFIG.H
C:\PROGRAM FILES (X86)\WINDOWS KITS\10\INCLUDE\10.0.22000.0\UCRT\WCHAR.H
C:\PROGRAM FILES (X86)\WINDOWS KITS\10\INCLUDE\10.0.22000.0\UCRT\CORECRT_MEMCPY_S.H
C:\PROGRAM FILES (X86)\WINDOWS KITS\10\INCLUDE\10.0.22000.0\UCRT\ERRNO.H
C:\PROGRAM FILES\MICROSOFT VISUAL STUDIO\2022\COMMUNITY\VC\TOOLS\MSVC\14.36.32532\INCLUDE\VCRUNTIME_STRING.H
C:\PROGRAM FILES (X86)\WINDOWS KITS\10\INCLUDE\10.0.22000.0\UCRT\CORECRT_WCONIO.H
C:\PROGRAM FILES (X86)\WINDOWS KITS\10\INCLUDE\10.0.22000.0\UCRT\CORECRT_WCTYPE.H
C:\PROGRAM FILES (X86)\WINDOWS KITS\10\INCLUDE\10.0.22000.0\UCRT\CORECRT_WDIRECT.H
C:\PROGRAM FILES (X86)\WINDOWS KITS\10\INCLUDE\10.0.22000.0\UCRT\CORECRT_WIO.H
C:\PROGRAM FILES (X86)\WINDOWS KITS\10\INCLUDE\10.0.22000.0\UCRT\CORECRT_SHARE.H
C:\PROGRAM FILES (X86)\WINDOWS KITS\10\INCLUDE\10.0.22000.0\UCRT\CORECRT_WPROCESS.H
C:\PROGRAM FILES (X86)\WINDOWS KITS\10\INCLUDE\10.0.22000.0\UCRT\CORECRT_WSTRING.H
C:\PROGRAM FILES (X86)\WINDOWS KITS\10\INCLUDE\10.0.22000.0\UCRT\CORECRT_WTIME.H
C:\PROGRAM FILES (X86)\WINDOWS KITS\10\INCLUDE\10.0.22000.0\UCRT\SYS\STAT.H
C:\PROGRAM FILES (X86)\WINDOWS KITS\10\INCLUDE\10.0.22000.0\UCRT\SYS\TYPES.H
C:\PROGRAM FILES\MICROSOFT VISUAL STUDIO\2022\COMMUNITY\VC\TOOLS\MSVC\14.36.32532\INCLUDE\INTRIN0.H
C:\PROGRAM FILES\MICROSOFT VISUAL STUDIO\2022\COMMUNITY\VC\TOOLS\MSVC\14.36.32532\INCLUDE\INTRIN0.INL.H
C:\PROGRAM FILES\MICROSOFT VISUAL STUDIO\2022\COMMUNITY\VC\TOOLS\MSVC\14.36.32532\INCLUDE\ISA_AVAILABILITY.H
C:\PROGRAM FILES\MICROSOFT VISUAL STUDIO\2022\COMMUNITY\VC\TOOLS\MSVC\14.36.32532\INCLUDE\NEW
C:\PROGRAM FILES\MICROSOFT VISUAL STUDIO\2022\COMMUNITY\VC\TOOLS\MSVC\14.36.32532\INCLUDE\EXCEPTION
C:\PROGRAM FILES\MICROSOFT VISUAL STUDIO\2022\COMMUNITY\VC\TOOLS\MSVC\14.36.32532\INCLUDE\YVALS.H
C:\PROGRAM FILES (X86)\WINDOWS KITS\10\INCLUDE\10.0.22000.0\UCRT\CRTDBG.H
C:\PROGRAM FILES\MICROSOFT VISUAL STUDIO\2022\COMMUNITY\VC\TOOLS\MSVC\14.36.32532\INCLUDE\VCRUNTIME_NEW_DEBUG.H
C:\PROGRAM FILES\MICROSOFT VISUAL STUDIO\2022\COMMUNITY\VC\TOOLS\MSVC\14.36.32532\INCLUDE\VCRUNTIME_NEW.H
C:\PROGRAM FILES\MICROSOFT VISUAL STUDIO\2022\COMMUNITY\VC\TOOLS\MSVC\14.36.32532\INCLUDE\CRTDEFS.H
C:\PROGRAM FILES\MICROSOFT VISUAL STUDIO\2022\COMMUNITY\VC\TOOLS\MSVC\14.36.32532\INCLUDE\USE_ANSI.H
C:\PROGRAM FILES (X86)\WINDOWS KITS\10\INCLUDE\10.0.22000.0\UCRT\MALLOC.H
C:\PROGRAM FILES\MICROSOFT VISUAL STUDIO\2022\COMMUNITY\VC\TOOLS\MSVC\14.36.32532\INCLUDE\VCRUNTIME_EXCEPTION.H
C:\PROGRAM FILES\MICROSOFT VISUAL STUDIO\2022\COMMUNITY\VC\TOOLS\MSVC\14.36.32532\INCLUDE\EH.H
C:\PROGRAM FILES (X86)\WINDOWS KITS\10\INCLUDE\10.0.22000.0\UCRT\CORECRT_TERMINATE.H
C:\PROGRAM FILES\MICROSOFT VISUAL STUDIO\2022\COMMUNITY\VC\TOOLS\MSVC\14.36.32532\INCLUDE\XATOMIC.H
C:\PROGRAM FILES\MICROSOFT VISUAL STUDIO\2022\COMMUNITY\VC\TOOLS\MSVC\14.36.32532\INCLUDE\XUTILITY
C:\PROGRAM FILES\MICROSOFT VISUAL STUDIO\2022\COMMUNITY\VC\TOOLS\MSVC\14.36.32532\INCLUDE\__MSVC_ITER_CORE.HPP
C:\PROGRAM FILES\MICROSOFT VISUAL STUDIO\2022\COMMUNITY\VC\TOOLS\MSVC\14.36.32532\INCLUDE\CSTRING
C:\PROGRAM FILES (X86)\WINDOWS KITS\10\INCLUDE\10.0.22000.0\UCRT\STRING.H
C:\PROGRAM FILES (X86)\WINDOWS KITS\10\INCLUDE\10.0.22000.0\UCRT\CORECRT_MEMORY.H
D:\PROGRAMM FILES\QT\6.2.4\MSVC2019_64\INCLUDE\QTCORE\QTYPEINFO.H
D:\PROGRAMM FILES\QT\6.2.4\MSVC2019_64\INCLUDE\QTCORE\QCONTAINERFWD.H
C:\PROGRAM FILES\MICROSOFT VISUAL STUDIO\2022\COMMUNITY\VC\TOOLS\MSVC\14.36.32532\INCLUDE\VARIANT
C:\PROGRAM FILES\MICROSOFT VISUAL STUDIO\2022\COMMUNITY\VC\TOOLS\MSVC\14.36.32532\INCLUDE\XSMF_CONTROL.H
C:\PROGRAM FILES\MICROSOFT VISUAL STUDIO\2022\COMMUNITY\VC\TOOLS\MSVC\14.36.32532\INCLUDE\OPTIONAL
C:\PROGRAM FILES\MICROSOFT VISUAL STUDIO\2022\COMMUNITY\VC\TOOLS\MSVC\14.36.32532\INCLUDE\TUPLE
D:\PROGRAMM FILES\QT\6.2.4\MSVC2019_64\INCLUDE\QTCORE\QSYSINFO.H
D:\PROGRAMM FILES\QT\6.2.4\MSVC2019_64\INCLUDE\QTCORE\QLOGGING.H
D:\PROGRAMM FILES\QT\6.2.4\MSVC2019_64\INCLUDE\QTCORE\QFLAGS.H
D:\PROGRAMM FILES\QT\6.2.4\MSVC2019_64\INCLUDE\QTCORE\QATOMIC.H
D:\PROGRAMM FILES\QT\6.2.4\MSVC2019_64\INCLUDE\QTCORE\QBASICATOMIC.H
D:\PROGRAMM FILES\QT\6.2.4\MSVC2019_64\INCLUDE\QTCORE\QATOMIC_CXX11.H
D:\PROGRAMM FILES\QT\6.2.4\MSVC2019_64\INCLUDE\QTCORE\QGENERICATOMIC.H
C:\PROGRAM FILES\MICROSOFT VISUAL STUDIO\2022\COMMUNITY\VC\TOOLS\MSVC\14.36.32532\INCLUDE\ATOMIC
C:\PROGRAM FILES\MICROSOFT VISUAL STUDIO\2022\COMMUNITY\VC\TOOLS\MSVC\14.36.32532\INCLUDE\XTHREADS.H
C:\PROGRAM FILES\MICROSOFT VISUAL STUDIO\2022\COMMUNITY\VC\TOOLS\MSVC\14.36.32532\INCLUDE\XTIMEC.H
C:\PROGRAM FILES\MICROSOFT VISUAL STUDIO\2022\COMMUNITY\VC\TOOLS\MSVC\14.36.32532\INCLUDE\CTIME
C:\PROGRAM FILES (X86)\WINDOWS KITS\10\INCLUDE\10.0.22000.0\UCRT\TIME.H
D:\PROGRAMM FILES\QT\6.2.4\MSVC2019_64\INCLUDE\QTCORE\QGLOBALSTATIC.H
D:\PROGRAMM FILES\QT\6.2.4\MSVC2019_64\INCLUDE\QTCORE\QNUMERIC.H
C:\PROGRAM FILES\MICROSOFT VISUAL STUDIO\2022\COMMUNITY\VC\TOOLS\MSVC\14.36.32532\INCLUDE\CMATH
C:\PROGRAM FILES\MICROSOFT VISUAL STUDIO\2022\COMMUNITY\VC\TOOLS\MSVC\14.36.32532\INCLUDE\INTRIN.H
C:\PROGRAM FILES\MICROSOFT VISUAL STUDIO\2022\COMMUNITY\VC\TOOLS\MSVC\14.36.32532\INCLUDE\SETJMP.H
C:\PROGRAM FILES\MICROSOFT VISUAL STUDIO\2022\COMMUNITY\VC\TOOLS\MSVC\14.36.32532\INCLUDE\IMMINTRIN.H
C:\PROGRAM FILES\MICROSOFT VISUAL STUDIO\2022\COMMUNITY\VC\TOOLS\MSVC\14.36.32532\INCLUDE\WMMINTRIN.H
C:\PROGRAM FILES\MICROSOFT VISUAL STUDIO\2022\COMMUNITY\VC\TOOLS\MSVC\14.36.32532\INCLUDE\NMMINTRIN.H
C:\PROGRAM FILES\MICROSOFT VISUAL STUDIO\2022\COMMUNITY\VC\TOOLS\MSVC\14.36.32532\INCLUDE\SMMINTRIN.H
C:\PROGRAM FILES\MICROSOFT VISUAL STUDIO\2022\COMMUNITY\VC\TOOLS\MSVC\14.36.32532\INCLUDE\TMMINTRIN.H
C:\PROGRAM FILES\MICROSOFT VISUAL STUDIO\2022\COMMUNITY\VC\TOOLS\MSVC\14.36.32532\INCLUDE\PMMINTRIN.H
C:\PROGRAM FILES\MICROSOFT VISUAL STUDIO\2022\COMMUNITY\VC\TOOLS\MSVC\14.36.32532\INCLUDE\EMMINTRIN.H
C:\PROGRAM FILES\MICROSOFT VISUAL STUDIO\2022\COMMUNITY\VC\TOOLS\MSVC\14.36.32532\INCLUDE\XMMINTRIN.H
C:\PROGRAM FILES\MICROSOFT VISUAL STUDIO\2022\COMMUNITY\VC\TOOLS\MSVC\14.36.32532\INCLUDE\MMINTRIN.H
C:\PROGRAM FILES\MICROSOFT VISUAL STUDIO\2022\COMMUNITY\VC\TOOLS\MSVC\14.36.32532\INCLUDE\ZMMINTRIN.H
C:\PROGRAM FILES\MICROSOFT VISUAL STUDIO\2022\COMMUNITY\VC\TOOLS\MSVC\14.36.32532\INCLUDE\AMMINTRIN.H
D:\PROGRAMM FILES\QT\6.2.4\MSVC2019_64\INCLUDE\QTCORE\QVERSIONTAGGING.H
D:\PROGRAMM FILES\QT\6.2.4\MSVC2019_64\INCLUDE\QTGUI\QTGUI-CONFIG.H
D:\PROGRAMM FILES\QT\6.2.4\MSVC2019_64\INCLUDE\QTWIDGETS\QTWIDGETS-CONFIG.H
D:\PROGRAMM FILES\QT\6.2.4\MSVC2019_64\INCLUDE\QTGUI\QWINDOWDEFS.H
D:\PROGRAMM FILES\QT\6.2.4\MSVC2019_64\INCLUDE\QTCORE\QOBJECTDEFS.H
D:\PROGRAMM FILES\QT\6.2.4\MSVC2019_64\INCLUDE\QTCORE\QNAMESPACE.H
D:\PROGRAMM FILES\QT\6.2.4\MSVC2019_64\INCLUDE\QTCORE\QTMETAMACROS.H
D:\PROGRAMM FILES\QT\6.2.4\MSVC2019_64\INCLUDE\QTCORE\QOBJECTDEFS_IMPL.H
D:\PROGRAMM FILES\QT\6.2.4\MSVC2019_64\INCLUDE\QTGUI\QWINDOWDEFS_WIN.H
D:\PROGRAMM FILES\QT\6.2.4\MSVC2019_64\INCLUDE\QTCORE\QOBJECT.H
D:\PROGRAMM FILES\QT\6.2.4\MSVC2019_64\INCLUDE\QTCORE\QSTRING.H
D:\PROGRAMM FILES\QT\6.2.4\MSVC2019_64\INCLUDE\QTCORE\QCHAR.H
C:\PROGRAM FILES\MICROSOFT VISUAL STUDIO\2022\COMMUNITY\VC\TOOLS\MSVC\14.36.32532\INCLUDE\FUNCTIONAL
C:\PROGRAM FILES\MICROSOFT VISUAL STUDIO\2022\COMMUNITY\VC\TOOLS\MSVC\14.36.32532\INCLUDE\TYPEINFO
C:\PROGRAM FILES\MICROSOFT VISUAL STUDIO\2022\COMMUNITY\VC\TOOLS\MSVC\14.36.32532\INCLUDE\VCRUNTIME_TYPEINFO.H
C:\PROGRAM FILES\MICROSOFT VISUAL STUDIO\2022\COMMUNITY\VC\TOOLS\MSVC\14.36.32532\INCLUDE\UNORDERED_MAP
C:\PROGRAM FILES\MICROSOFT VISUAL STUDIO\2022\COMMUNITY\VC\TOOLS\MSVC\14.36.32532\INCLUDE\XHASH
C:\PROGRAM FILES\MICROSOFT VISUAL STUDIO\2022\COMMUNITY\VC\TOOLS\MSVC\14.36.32532\INCLUDE\LIST
C:\PROGRAM FILES\MICROSOFT VISUAL STUDIO\2022\COMMUNITY\VC\TOOLS\MSVC\14.36.32532\INCLUDE\XPOLYMORPHIC_ALLOCATOR.H
C:\PROGRAM FILES\MICROSOFT VISUAL STUDIO\2022\COMMUNITY\VC\TOOLS\MSVC\14.36.32532\INCLUDE\VECTOR
C:\PROGRAM FILES\MICROSOFT VISUAL STUDIO\2022\COMMUNITY\VC\TOOLS\MSVC\14.36.32532\INCLUDE\__MSVC_SANITIZER_ANNOTATE_CONTAINER.HPP
C:\PROGRAM FILES\MICROSOFT VISUAL STUDIO\2022\COMMUNITY\VC\TOOLS\MSVC\14.36.32532\INCLUDE\XBIT_OPS.H
C:\PROGRAM FILES\MICROSOFT VISUAL STUDIO\2022\COMMUNITY\VC\TOOLS\MSVC\14.36.32532\INCLUDE\XNODE_HANDLE.H
D:\PROGRAMM FILES\QT\6.2.4\MSVC2019_64\INCLUDE\QTCORE\QSTRINGVIEW.H
D:\PROGRAMM FILES\QT\6.2.4\MSVC2019_64\INCLUDE\QTCORE\QBYTEARRAY.H
D:\PROGRAMM FILES\QT\6.2.4\MSVC2019_64\INCLUDE\QTCORE\QREFCOUNT.H
D:\PROGRAMM FILES\QT\6.2.4\MSVC2019_64\INCLUDE\QTCORE\QARRAYDATA.H
D:\PROGRAMM FILES\QT\6.2.4\MSVC2019_64\INCLUDE\QTCORE\QPAIR.H
D:\PROGRAMM FILES\QT\6.2.4\MSVC2019_64\INCLUDE\QTCORE\QARRAYDATAPOINTER.H
D:\PROGRAMM FILES\QT\6.2.4\MSVC2019_64\INCLUDE\QTCORE\QARRAYDATAOPS.H
D:\PROGRAMM FILES\QT\6.2.4\MSVC2019_64\INCLUDE\QTCORE\QCONTAINERTOOLS_IMPL.H
C:\PROGRAM FILES\MICROSOFT VISUAL STUDIO\2022\COMMUNITY\VC\TOOLS\MSVC\14.36.32532\INCLUDE\ITERATOR
C:\PROGRAM FILES\MICROSOFT VISUAL STUDIO\2022\COMMUNITY\VC\TOOLS\MSVC\14.36.32532\INCLUDE\IOSFWD
C:\PROGRAM FILES\MICROSOFT VISUAL STUDIO\2022\COMMUNITY\VC\TOOLS\MSVC\14.36.32532\INCLUDE\MEMORY
D:\PROGRAMM FILES\QT\6.2.4\MSVC2019_64\INCLUDE\QTCORE\QBYTEARRAYALGORITHMS.H
C:\PROGRAM FILES\MICROSOFT VISUAL STUDIO\2022\COMMUNITY\VC\TOOLS\MSVC\14.36.32532\INCLUDE\STDARG.H
D:\PROGRAMM FILES\QT\6.2.4\MSVC2019_64\INCLUDE\QTCORE\QBYTEARRAYVIEW.H
C:\PROGRAM FILES\MICROSOFT VISUAL STUDIO\2022\COMMUNITY\VC\TOOLS\MSVC\14.36.32532\INCLUDE\STRING
C:\PROGRAM FILES\MICROSOFT VISUAL STUDIO\2022\COMMUNITY\VC\TOOLS\MSVC\14.36.32532\INCLUDE\XSTRING
C:\PROGRAM FILES\MICROSOFT VISUAL STUDIO\2022\COMMUNITY\VC\TOOLS\MSVC\14.36.32532\INCLUDE\CCTYPE
C:\PROGRAM FILES (X86)\WINDOWS KITS\10\INCLUDE\10.0.22000.0\UCRT\CTYPE.H
D:\PROGRAMM FILES\QT\6.2.4\MSVC2019_64\INCLUDE\QTCORE\QSTRINGLITERAL.H
D:\PROGRAMM FILES\QT\6.2.4\MSVC2019_64\INCLUDE\QTCORE\QSTRINGALGORITHMS.H
D:\PROGRAMM FILES\QT\6.2.4\MSVC2019_64\INCLUDE\QTCORE\QANYSTRINGVIEW.H
D:\PROGRAMM FILES\QT\6.2.4\MSVC2019_64\INCLUDE\QTCORE\QUTF8STRINGVIEW.H
D:\PROGRAMM FILES\QT\6.2.4\MSVC2019_64\INCLUDE\QTCORE\QSTRINGTOKENIZER.H
D:\PROGRAMM FILES\QT\6.2.4\MSVC2019_64\INCLUDE\QTCORE\QLIST.H
D:\PROGRAMM FILES\QT\6.2.4\MSVC2019_64\INCLUDE\QTCORE\QHASHFUNCTIONS.H
C:\PROGRAM FILES\MICROSOFT VISUAL STUDIO\2022\COMMUNITY\VC\TOOLS\MSVC\14.36.32532\INCLUDE\NUMERIC
D:\PROGRAMM FILES\QT\6.2.4\MSVC2019_64\INCLUDE\QTCORE\QITERATOR.H
D:\PROGRAMM FILES\QT\6.2.4\MSVC2019_64\INCLUDE\QTCORE\QBYTEARRAYLIST.H
D:\PROGRAMM FILES\QT\6.2.4\MSVC2019_64\INCLUDE\QTCORE\QSTRINGLIST.H
D:\PROGRAMM FILES\QT\6.2.4\MSVC2019_64\INCLUDE\QTCORE\QALGORITHMS.H
D:\PROGRAMM FILES\QT\6.2.4\MSVC2019_64\INCLUDE\QTCORE\QSTRINGMATCHER.H
D:\PROGRAMM FILES\QT\6.2.4\MSVC2019_64\INCLUDE\QTCORE\QSCOPEDPOINTER.H
D:\PROGRAMM FILES\QT\6.2.4\MSVC2019_64\INCLUDE\QTCORE\QMETATYPE.H
D:\PROGRAMM FILES\QT\6.2.4\MSVC2019_64\INCLUDE\QTCORE\QCOMPARE.H
D:\PROGRAMM FILES\QT\6.2.4\MSVC2019_64\INCLUDE\QTCORE\QVARLENGTHARRAY.H
D:\PROGRAMM FILES\QT\6.2.4\MSVC2019_64\INCLUDE\QTCORE\QSCOPEGUARD.H
D:\PROGRAMM FILES\QT\6.2.4\MSVC2019_64\INCLUDE\QTCORE\QDATASTREAM.H
D:\PROGRAMM FILES\QT\6.2.4\MSVC2019_64\INCLUDE\QTCORE\QIODEVICEBASE.H
D:\PROGRAMM FILES\QT\6.2.4\MSVC2019_64\INCLUDE\QTCORE\QITERABLE.H
D:\PROGRAMM FILES\QT\6.2.4\MSVC2019_64\INCLUDE\QTCORE\QMETACONTAINER.H
D:\PROGRAMM FILES\QT\6.2.4\MSVC2019_64\INCLUDE\QTCORE\QCONTAINERINFO.H
D:\PROGRAMM FILES\QT\6.2.4\MSVC2019_64\INCLUDE\QTCORE\QTAGGEDPOINTER.H
D:\PROGRAMM FILES\QT\6.2.4\MSVC2019_64\INCLUDE\QTCORE\QMATH.H
C:\PROGRAM FILES\MICROSOFT VISUAL STUDIO\2022\COMMUNITY\VC\TOOLS\MSVC\14.36.32532\INCLUDE\ARRAY
C:\PROGRAM FILES\MICROSOFT VISUAL STUDIO\2022\COMMUNITY\VC\TOOLS\MSVC\14.36.32532\INCLUDE\MAP
C:\PROGRAM FILES\MICROSOFT VISUAL STUDIO\2022\COMMUNITY\VC\TOOLS\MSVC\14.36.32532\INCLUDE\XTREE
D:\PROGRAMM FILES\QT\6.2.4\MSVC2019_64\INCLUDE\QTCORE\QOBJECT_IMPL.H
D:\PROGRAMM FILES\QT\6.2.4\MSVC2019_64\INCLUDE\QTCORE\QBINDINGSTORAGE.H
C:\PROGRAM FILES\MICROSOFT VISUAL STUDIO\2022\COMMUNITY\VC\TOOLS\MSVC\14.36.32532\INCLUDE\CHRONO
C:\PROGRAM FILES\MICROSOFT VISUAL STUDIO\2022\COMMUNITY\VC\TOOLS\MSVC\14.36.32532\INCLUDE\__MSVC_CHRONO.HPP
C:\PROGRAM FILES\MICROSOFT VISUAL STUDIO\2022\COMMUNITY\VC\TOOLS\MSVC\14.36.32532\INCLUDE\RATIO
C:\PROGRAM FILES\MICROSOFT VISUAL STUDIO\2022\COMMUNITY\VC\TOOLS\MSVC\14.36.32532\INCLUDE\SYSTEM_ERROR
C:\PROGRAM FILES\MICROSOFT VISUAL STUDIO\2022\COMMUNITY\VC\TOOLS\MSVC\14.36.32532\INCLUDE\__MSVC_SYSTEM_ERROR_ABI.HPP
C:\PROGRAM FILES\MICROSOFT VISUAL STUDIO\2022\COMMUNITY\VC\TOOLS\MSVC\14.36.32532\INCLUDE\CERRNO
C:\PROGRAM FILES\MICROSOFT VISUAL STUDIO\2022\COMMUNITY\VC\TOOLS\MSVC\14.36.32532\INCLUDE\STDEXCEPT
C:\PROGRAM FILES\MICROSOFT VISUAL STUDIO\2022\COMMUNITY\VC\TOOLS\MSVC\14.36.32532\INCLUDE\XCALL_ONCE.H
C:\PROGRAM FILES\MICROSOFT VISUAL STUDIO\2022\COMMUNITY\VC\TOOLS\MSVC\14.36.32532\INCLUDE\XERRC.H
C:\PROGRAM FILES\MICROSOFT VISUAL STUDIO\2022\COMMUNITY\VC\TOOLS\MSVC\14.36.32532\INCLUDE\XFILESYSTEM_ABI.H
D:\PROGRAMM FILES\QT\6.2.4\MSVC2019_64\INCLUDE\QTCORE\QMARGINS.H
D:\PROGRAMM FILES\QT\6.2.4\MSVC2019_64\INCLUDE\QTGUI\QPAINTDEVICE.H
D:\PROGRAMM FILES\QT\6.2.4\MSVC2019_64\INCLUDE\QTCORE\QRECT.H
D:\PROGRAMM FILES\QT\6.2.4\MSVC2019_64\INCLUDE\QTCORE\QSIZE.H
D:\PROGRAMM FILES\QT\6.2.4\MSVC2019_64\INCLUDE\QTCORE\QPOINT.H
D:\PROGRAMM FILES\QT\6.2.4\MSVC2019_64\INCLUDE\QTGUI\QPALETTE.H
D:\PROGRAMM FILES\QT\6.2.4\MSVC2019_64\INCLUDE\QTGUI\QCOLOR.H
D:\PROGRAMM FILES\QT\6.2.4\MSVC2019_64\INCLUDE\QTGUI\QRGB.H
D:\PROGRAMM FILES\QT\6.2.4\MSVC2019_64\INCLUDE\QTGUI\QRGBA64.H
D:\PROGRAMM FILES\QT\6.2.4\MSVC2019_64\INCLUDE\QTGUI\QBRUSH.H
D:\PROGRAMM FILES\QT\6.2.4\MSVC2019_64\INCLUDE\QTGUI\QIMAGE.H
D:\PROGRAMM FILES\QT\6.2.4\MSVC2019_64\INCLUDE\QTGUI\QPIXELFORMAT.H
D:\PROGRAMM FILES\QT\6.2.4\MSVC2019_64\INCLUDE\QTGUI\QTRANSFORM.H
D:\PROGRAMM FILES\QT\6.2.4\MSVC2019_64\INCLUDE\QTGUI\QPOLYGON.H
D:\PROGRAMM FILES\QT\6.2.4\MSVC2019_64\INCLUDE\QTGUI\QREGION.H
D:\PROGRAMM FILES\QT\6.2.4\MSVC2019_64\INCLUDE\QTCORE\QLINE.H
D:\PROGRAMM FILES\QT\6.2.4\MSVC2019_64\INCLUDE\QTGUI\QPIXMAP.H
D:\PROGRAMM FILES\QT\6.2.4\MSVC2019_64\INCLUDE\QTCORE\QSHAREDPOINTER.H
D:\PROGRAMM FILES\QT\6.2.4\MSVC2019_64\INCLUDE\QTCORE\QSHAREDDATA.H
D:\PROGRAMM FILES\QT\6.2.4\MSVC2019_64\INCLUDE\QTCORE\QSHAREDPOINTER_IMPL.H
D:\PROGRAMM FILES\QT\6.2.4\MSVC2019_64\INCLUDE\QTGUI\QFONT.H
D:\PROGRAMM FILES\QT\6.2.4\MSVC2019_64\INCLUDE\QTGUI\QFONTMETRICS.H
D:\PROGRAMM FILES\QT\6.2.4\MSVC2019_64\INCLUDE\QTGUI\QFONTINFO.H
D:\PROGRAMM FILES\QT\6.2.4\MSVC2019_64\INCLUDE\QTWIDGETS\QSIZEPOLICY.H
D:\PROGRAMM FILES\QT\6.2.4\MSVC2019_64\INCLUDE\QTGUI\QCURSOR.H
D:\PROGRAMM FILES\QT\6.2.4\MSVC2019_64\INCLUDE\QTGUI\QBITMAP.H
D:\PROGRAMM FILES\QT\6.2.4\MSVC2019_64\INCLUDE\QTGUI\QKEYSEQUENCE.H
D:\CODING\QTPROJECTS\TIC-TAC-TOE\TIC-TAC-TOE\X64\DEBUG\UIC\UI_TICTACTOE.H
D:\PROGRAMM FILES\QT\6.2.4\MSVC2019_64\INCLUDE\QTCORE\QVARIANT
D:\PROGRAMM FILES\QT\6.2.4\MSVC2019_64\INCLUDE\QTCORE\QVARIANT.H
D:\PROGRAMM FILES\QT\6.2.4\MSVC2019_64\INCLUDE\QTCORE\QMAP.H
D:\PROGRAMM FILES\QT\6.2.4\MSVC2019_64\INCLUDE\QTCORE\QSHAREDDATA_IMPL.H
D:\PROGRAMM FILES\QT\6.2.4\MSVC2019_64\INCLUDE\QTCORE\QHASH.H
D:\PROGRAMM FILES\QT\6.2.4\MSVC2019_64\INCLUDE\QTCORE\QDEBUG.H
D:\PROGRAMM FILES\QT\6.2.4\MSVC2019_64\INCLUDE\QTCORE\QTEXTSTREAM.H
D:\PROGRAMM FILES\QT\6.2.4\MSVC2019_64\INCLUDE\QTCORE\QSTRINGCONVERTER.H
D:\PROGRAMM FILES\QT\6.2.4\MSVC2019_64\INCLUDE\QTCORE\QSET.H
D:\PROGRAMM FILES\QT\6.2.4\MSVC2019_64\INCLUDE\QTCORE\QCONTIGUOUSCACHE.H
D:\PROGRAMM FILES\QT\6.2.4\MSVC2019_64\INCLUDE\QTWIDGETS\QAPPLICATION
D:\PROGRAMM FILES\QT\6.2.4\MSVC2019_64\INCLUDE\QTWIDGETS\QAPPLICATION.H
D:\PROGRAMM FILES\QT\6.2.4\MSVC2019_64\INCLUDE\QTCORE\QCOREAPPLICATION.H
D:\PROGRAMM FILES\QT\6.2.4\MSVC2019_64\INCLUDE\QTCORE\QCOREEVENT.H
D:\PROGRAMM FILES\QT\6.2.4\MSVC2019_64\INCLUDE\QTCORE\QEVENTLOOP.H
D:\PROGRAMM FILES\QT\6.2.4\MSVC2019_64\INCLUDE\QTCORE\QNATIVEINTERFACE.H
D:\PROGRAMM FILES\QT\6.2.4\MSVC2019_64\INCLUDE\QTCORE\QCOREAPPLICATION_PLATFORM.H
D:\PROGRAMM FILES\QT\6.2.4\MSVC2019_64\INCLUDE\QTGUI\QGUIAPPLICATION.H
D:\PROGRAMM FILES\QT\6.2.4\MSVC2019_64\INCLUDE\QTGUI\QINPUTMETHOD.H
D:\PROGRAMM FILES\QT\6.2.4\MSVC2019_64\INCLUDE\QTCORE\QLOCALE.H
D:\PROGRAMM FILES\QT\6.2.4\MSVC2019_64\INCLUDE\QTGUI\QGUIAPPLICATION_PLATFORM.H
D:\PROGRAMM FILES\QT\6.2.4\MSVC2019_64\INCLUDE\QTWIDGETS\QMESSAGEBOX
D:\PROGRAMM FILES\QT\6.2.4\MSVC2019_64\INCLUDE\QTWIDGETS\QMESSAGEBOX.H
D:\PROGRAMM FILES\QT\6.2.4\MSVC2019_64\INCLUDE\QTWIDGETS\QDIALOG.H
D:\PROGRAMM FILES\QT\6.2.4\MSVC2019_64\INCLUDE\QTWIDGETS\QPUSHBUTTON
D:\PROGRAMM FILES\QT\6.2.4\MSVC2019_64\INCLUDE\QTWIDGETS\QPUSHBUTTON.H
D:\PROGRAMM FILES\QT\6.2.4\MSVC2019_64\INCLUDE\QTWIDGETS\QABSTRACTBUTTON.H
D:\PROGRAMM FILES\QT\6.2.4\MSVC2019_64\INCLUDE\QTGUI\QICON.H
D:\PROGRAMM FILES\QT\6.2.4\MSVC2019_64\INCLUDE\QTWIDGETS\QGRIDLAYOUT
D:\PROGRAMM FILES\QT\6.2.4\MSVC2019_64\INCLUDE\QTWIDGETS\QGRIDLAYOUT.H
D:\PROGRAMM FILES\QT\6.2.4\MSVC2019_64\INCLUDE\QTWIDGETS\QLAYOUT.H
D:\PROGRAMM FILES\QT\6.2.4\MSVC2019_64\INCLUDE\QTWIDGETS\QLAYOUTITEM.H
D:\PROGRAMM FILES\QT\6.2.4\MSVC2019_64\INCLUDE\QTWIDGETS\QBOXLAYOUT.H
^D:\CODING\QTPROJECTS\TIC-TAC-TOE\TIC-TAC-TOE\X64\DEBUG\RCC\QRC_TICTACTOE.CPP
^D:\CODING\QTPROJECTS\TIC-TAC-TOE\TIC-TAC-TOE\X64\DEBUG\MOC\MOC_TICTACTOE.CPP
C:\PROGRAM FILES\MICROSOFT VISUAL STUDIO\2022\COMMUNITY\VC\TOOLS\MSVC\14.36.32532\INCLUDE\MEMORY
C:\PROGRAM FILES\MICROSOFT VISUAL STUDIO\2022\COMMUNITY\VC\TOOLS\MSVC\14.36.32532\INCLUDE\YVALS_CORE.H
C:\PROGRAM FILES\MICROSOFT VISUAL STUDIO\2022\COMMUNITY\VC\TOOLS\MSVC\14.36.32532\INCLUDE\VCRUNTIME.H
C:\PROGRAM FILES\MICROSOFT VISUAL STUDIO\2022\COMMUNITY\VC\TOOLS\MSVC\14.36.32532\INCLUDE\SAL.H
C:\PROGRAM FILES\MICROSOFT VISUAL STUDIO\2022\COMMUNITY\VC\TOOLS\MSVC\14.36.32532\INCLUDE\CONCURRENCYSAL.H
C:\PROGRAM FILES\MICROSOFT VISUAL STUDIO\2022\COMMUNITY\VC\TOOLS\MSVC\14.36.32532\INCLUDE\VADEFS.H
C:\PROGRAM FILES\MICROSOFT VISUAL STUDIO\2022\COMMUNITY\VC\TOOLS\MSVC\14.36.32532\INCLUDE\XKEYCHECK.H
C:\PROGRAM FILES\MICROSOFT VISUAL STUDIO\2022\COMMUNITY\VC\TOOLS\MSVC\14.36.32532\INCLUDE\EXCEPTION
C:\PROGRAM FILES\MICROSOFT VISUAL STUDIO\2022\COMMUNITY\VC\TOOLS\MSVC\14.36.32532\INCLUDE\YVALS.H
C:\PROGRAM FILES (X86)\WINDOWS KITS\10\INCLUDE\10.0.22000.0\UCRT\CRTDBG.H
C:\PROGRAM FILES (X86)\WINDOWS KITS\10\INCLUDE\10.0.22000.0\UCRT\CORECRT.H
C:\PROGRAM FILES\MICROSOFT VISUAL STUDIO\2022\COMMUNITY\VC\TOOLS\MSVC\14.36.32532\INCLUDE\VCRUNTIME_NEW_DEBUG.H
C:\PROGRAM FILES\MICROSOFT VISUAL STUDIO\2022\COMMUNITY\VC\TOOLS\MSVC\14.36.32532\INCLUDE\VCRUNTIME_NEW.H
C:\PROGRAM FILES\MICROSOFT VISUAL STUDIO\2022\COMMUNITY\VC\TOOLS\MSVC\14.36.32532\INCLUDE\CRTDEFS.H
C:\PROGRAM FILES\MICROSOFT VISUAL STUDIO\2022\COMMUNITY\VC\TOOLS\MSVC\14.36.32532\INCLUDE\USE_ANSI.H
C:\PROGRAM FILES\MICROSOFT VISUAL STUDIO\2022\COMMUNITY\VC\TOOLS\MSVC\14.36.32532\INCLUDE\TYPE_TRAITS
C:\PROGRAM FILES\MICROSOFT VISUAL STUDIO\2022\COMMUNITY\VC\TOOLS\MSVC\14.36.32532\INCLUDE\CSTDINT
C:\PROGRAM FILES\MICROSOFT VISUAL STUDIO\2022\COMMUNITY\VC\TOOLS\MSVC\14.36.32532\INCLUDE\STDINT.H
C:\PROGRAM FILES\MICROSOFT VISUAL STUDIO\2022\COMMUNITY\VC\TOOLS\MSVC\14.36.32532\INCLUDE\XSTDDEF
C:\PROGRAM FILES\MICROSOFT VISUAL STUDIO\2022\COMMUNITY\VC\TOOLS\MSVC\14.36.32532\INCLUDE\CSTDDEF
C:\PROGRAM FILES (X86)\WINDOWS KITS\10\INCLUDE\10.0.22000.0\UCRT\STDDEF.H
C:\PROGRAM FILES\MICROSOFT VISUAL STUDIO\2022\COMMUNITY\VC\TOOLS\MSVC\14.36.32532\INCLUDE\XTR1COMMON
C:\PROGRAM FILES\MICROSOFT VISUAL STUDIO\2022\COMMUNITY\VC\TOOLS\MSVC\14.36.32532\INCLUDE\CSTDLIB
C:\PROGRAM FILES (X86)\WINDOWS KITS\10\INCLUDE\10.0.22000.0\UCRT\MATH.H
C:\PROGRAM FILES (X86)\WINDOWS KITS\10\INCLUDE\10.0.22000.0\UCRT\CORECRT_MATH.H
C:\PROGRAM FILES (X86)\WINDOWS KITS\10\INCLUDE\10.0.22000.0\UCRT\STDLIB.H
C:\PROGRAM FILES (X86)\WINDOWS KITS\10\INCLUDE\10.0.22000.0\UCRT\CORECRT_MALLOC.H
C:\PROGRAM FILES (X86)\WINDOWS KITS\10\INCLUDE\10.0.22000.0\UCRT\CORECRT_SEARCH.H
C:\PROGRAM FILES (X86)\WINDOWS KITS\10\INCLUDE\10.0.22000.0\UCRT\CORECRT_WSTDLIB.H
C:\PROGRAM FILES\MICROSOFT VISUAL STUDIO\2022\COMMUNITY\VC\TOOLS\MSVC\14.36.32532\INCLUDE\LIMITS.H
C:\PROGRAM FILES\MICROSOFT VISUAL STUDIO\2022\COMMUNITY\VC\TOOLS\MSVC\14.36.32532\INCLUDE\INITIALIZER_LIST
C:\PROGRAM FILES (X86)\WINDOWS KITS\10\INCLUDE\10.0.22000.0\UCRT\MALLOC.H
C:\PROGRAM FILES\MICROSOFT VISUAL STUDIO\2022\COMMUNITY\VC\TOOLS\MSVC\14.36.32532\INCLUDE\VCRUNTIME_EXCEPTION.H
C:\PROGRAM FILES\MICROSOFT VISUAL STUDIO\2022\COMMUNITY\VC\TOOLS\MSVC\14.36.32532\INCLUDE\EH.H
C:\PROGRAM FILES (X86)\WINDOWS KITS\10\INCLUDE\10.0.22000.0\UCRT\CORECRT_TERMINATE.H
C:\PROGRAM FILES\MICROSOFT VISUAL STUDIO\2022\COMMUNITY\VC\TOOLS\MSVC\14.36.32532\INCLUDE\IOSFWD
C:\PROGRAM FILES\MICROSOFT VISUAL STUDIO\2022\COMMUNITY\VC\TOOLS\MSVC\14.36.32532\INCLUDE\CSTDIO
C:\PROGRAM FILES (X86)\WINDOWS KITS\10\INCLUDE\10.0.22000.0\UCRT\STDIO.H
C:\PROGRAM FILES (X86)\WINDOWS KITS\10\INCLUDE\10.0.22000.0\UCRT\CORECRT_WSTDIO.H
C:\PROGRAM FILES (X86)\WINDOWS KITS\10\INCLUDE\10.0.22000.0\UCRT\CORECRT_STDIO_CONFIG.H
C:\PROGRAM FILES\MICROSOFT VISUAL STUDIO\2022\COMMUNITY\VC\TOOLS\MSVC\14.36.32532\INCLUDE\CSTRING
C:\PROGRAM FILES (X86)\WINDOWS KITS\10\INCLUDE\10.0.22000.0\UCRT\STRING.H
C:\PROGRAM FILES (X86)\WINDOWS KITS\10\INCLUDE\10.0.22000.0\UCRT\CORECRT_MEMORY.H
C:\PROGRAM FILES (X86)\WINDOWS KITS\10\INCLUDE\10.0.22000.0\UCRT\CORECRT_MEMCPY_S.H
C:\PROGRAM FILES (X86)\WINDOWS KITS\10\INCLUDE\10.0.22000.0\UCRT\ERRNO.H
C:\PROGRAM FILES\MICROSOFT VISUAL STUDIO\2022\COMMUNITY\VC\TOOLS\MSVC\14.36.32532\INCLUDE\VCRUNTIME_STRING.H
C:\PROGRAM FILES (X86)\WINDOWS KITS\10\INCLUDE\10.0.22000.0\UCRT\CORECRT_WSTRING.H
C:\PROGRAM FILES\MICROSOFT VISUAL STUDIO\2022\COMMUNITY\VC\TOOLS\MSVC\14.36.32532\INCLUDE\CWCHAR
C:\PROGRAM FILES (X86)\WINDOWS KITS\10\INCLUDE\10.0.22000.0\UCRT\WCHAR.H
C:\PROGRAM FILES (X86)\WINDOWS KITS\10\INCLUDE\10.0.22000.0\UCRT\CORECRT_WCONIO.H
C:\PROGRAM FILES (X86)\WINDOWS KITS\10\INCLUDE\10.0.22000.0\UCRT\CORECRT_WCTYPE.H
C:\PROGRAM FILES (X86)\WINDOWS KITS\10\INCLUDE\10.0.22000.0\UCRT\CORECRT_WDIRECT.H
C:\PROGRAM FILES (X86)\WINDOWS KITS\10\INCLUDE\10.0.22000.0\UCRT\CORECRT_WIO.H
C:\PROGRAM FILES (X86)\WINDOWS KITS\10\INCLUDE\10.0.22000.0\UCRT\CORECRT_SHARE.H
C:\PROGRAM FILES (X86)\WINDOWS KITS\10\INCLUDE\10.0.22000.0\UCRT\CORECRT_WPROCESS.H
C:\PROGRAM FILES (X86)\WINDOWS KITS\10\INCLUDE\10.0.22000.0\UCRT\CORECRT_WTIME.H
C:\PROGRAM FILES (X86)\WINDOWS KITS\10\INCLUDE\10.0.22000.0\UCRT\SYS\STAT.H
C:\PROGRAM FILES (X86)\WINDOWS KITS\10\INCLUDE\10.0.22000.0\UCRT\SYS\TYPES.H
C:\PROGRAM FILES\MICROSOFT VISUAL STUDIO\2022\COMMUNITY\VC\TOOLS\MSVC\14.36.32532\INCLUDE\TYPEINFO
C:\PROGRAM FILES\MICROSOFT VISUAL STUDIO\2022\COMMUNITY\VC\TOOLS\MSVC\14.36.32532\INCLUDE\VCRUNTIME_TYPEINFO.H
C:\PROGRAM FILES\MICROSOFT VISUAL STUDIO\2022\COMMUNITY\VC\TOOLS\MSVC\14.36.32532\INCLUDE\XMEMORY
C:\PROGRAM FILES\MICROSOFT VISUAL STUDIO\2022\COMMUNITY\VC\TOOLS\MSVC\14.36.32532\INCLUDE\LIMITS
C:\PROGRAM FILES\MICROSOFT VISUAL STUDIO\2022\COMMUNITY\VC\TOOLS\MSVC\14.36.32532\INCLUDE\CFLOAT
C:\PROGRAM FILES (X86)\WINDOWS KITS\10\INCLUDE\10.0.22000.0\UCRT\FLOAT.H
C:\PROGRAM FILES\MICROSOFT VISUAL STUDIO\2022\COMMUNITY\VC\TOOLS\MSVC\14.36.32532\INCLUDE\CLIMITS
C:\PROGRAM FILES\MICROSOFT VISUAL STUDIO\2022\COMMUNITY\VC\TOOLS\MSVC\14.36.32532\INCLUDE\INTRIN0.H
C:\PROGRAM FILES\MICROSOFT VISUAL STUDIO\2022\COMMUNITY\VC\TOOLS\MSVC\14.36.32532\INCLUDE\INTRIN0.INL.H
C:\PROGRAM FILES\MICROSOFT VISUAL STUDIO\2022\COMMUNITY\VC\TOOLS\MSVC\14.36.32532\INCLUDE\ISA_AVAILABILITY.H
C:\PROGRAM FILES\MICROSOFT VISUAL STUDIO\2022\COMMUNITY\VC\TOOLS\MSVC\14.36.32532\INCLUDE\NEW
C:\PROGRAM FILES\MICROSOFT VISUAL STUDIO\2022\COMMUNITY\VC\TOOLS\MSVC\14.36.32532\INCLUDE\XATOMIC.H
C:\PROGRAM FILES\MICROSOFT VISUAL STUDIO\2022\COMMUNITY\VC\TOOLS\MSVC\14.36.32532\INCLUDE\XUTILITY
C:\PROGRAM FILES\MICROSOFT VISUAL STUDIO\2022\COMMUNITY\VC\TOOLS\MSVC\14.36.32532\INCLUDE\__MSVC_ITER_CORE.HPP
C:\PROGRAM FILES\MICROSOFT VISUAL STUDIO\2022\COMMUNITY\VC\TOOLS\MSVC\14.36.32532\INCLUDE\UTILITY
D:\CODING\QTPROJECTS\TIC-TAC-TOE\TIC-TAC-TOE\TICTACTOE.H
D:\PROGRAMM FILES\QT\6.2.4\MSVC2019_64\INCLUDE\QTWIDGETS\QWIDGET
D:\PROGRAMM FILES\QT\6.2.4\MSVC2019_64\INCLUDE\QTWIDGETS\QWIDGET.H
D:\PROGRAMM FILES\QT\6.2.4\MSVC2019_64\INCLUDE\QTWIDGETS\QTWIDGETSGLOBAL.H
D:\PROGRAMM FILES\QT\6.2.4\MSVC2019_64\INCLUDE\QTGUI\QTGUIGLOBAL.H
D:\PROGRAMM FILES\QT\6.2.4\MSVC2019_64\INCLUDE\QTCORE\QGLOBAL.H
C:\PROGRAM FILES (X86)\WINDOWS KITS\10\INCLUDE\10.0.22000.0\UCRT\ASSERT.H
D:\PROGRAMM FILES\QT\6.2.4\MSVC2019_64\INCLUDE\QTCORE\QCONFIG.H
D:\PROGRAMM FILES\QT\6.2.4\MSVC2019_64\INCLUDE\QTCORE\QTCORE-CONFIG.H
D:\PROGRAMM FILES\QT\6.2.4\MSVC2019_64\INCLUDE\QTCORE\QSYSTEMDETECTION.H
D:\PROGRAMM FILES\QT\6.2.4\MSVC2019_64\INCLUDE\QTCORE\QPROCESSORDETECTION.H
D:\PROGRAMM FILES\QT\6.2.4\MSVC2019_64\INCLUDE\QTCORE\QCOMPILERDETECTION.H
C:\PROGRAM FILES\MICROSOFT VISUAL STUDIO\2022\COMMUNITY\VC\TOOLS\MSVC\14.36.32532\INCLUDE\ALGORITHM
D:\PROGRAMM FILES\QT\6.2.4\MSVC2019_64\INCLUDE\QTCORE\QTYPEINFO.H
D:\PROGRAMM FILES\QT\6.2.4\MSVC2019_64\INCLUDE\QTCORE\QCONTAINERFWD.H
C:\PROGRAM FILES\MICROSOFT VISUAL STUDIO\2022\COMMUNITY\VC\TOOLS\MSVC\14.36.32532\INCLUDE\VARIANT
C:\PROGRAM FILES\MICROSOFT VISUAL STUDIO\2022\COMMUNITY\VC\TOOLS\MSVC\14.36.32532\INCLUDE\XSMF_CONTROL.H
C:\PROGRAM FILES\MICROSOFT VISUAL STUDIO\2022\COMMUNITY\VC\TOOLS\MSVC\14.36.32532\INCLUDE\OPTIONAL
C:\PROGRAM FILES\MICROSOFT VISUAL STUDIO\2022\COMMUNITY\VC\TOOLS\MSVC\14.36.32532\INCLUDE\TUPLE
D:\PROGRAMM FILES\QT\6.2.4\MSVC2019_64\INCLUDE\QTCORE\QSYSINFO.H
D:\PROGRAMM FILES\QT\6.2.4\MSVC2019_64\INCLUDE\QTCORE\QLOGGING.H
D:\PROGRAMM FILES\QT\6.2.4\MSVC2019_64\INCLUDE\QTCORE\QFLAGS.H
D:\PROGRAMM FILES\QT\6.2.4\MSVC2019_64\INCLUDE\QTCORE\QATOMIC.H
D:\PROGRAMM FILES\QT\6.2.4\MSVC2019_64\INCLUDE\QTCORE\QBASICATOMIC.H
D:\PROGRAMM FILES\QT\6.2.4\MSVC2019_64\INCLUDE\QTCORE\QATOMIC_CXX11.H
D:\PROGRAMM FILES\QT\6.2.4\MSVC2019_64\INCLUDE\QTCORE\QGENERICATOMIC.H
C:\PROGRAM FILES\MICROSOFT VISUAL STUDIO\2022\COMMUNITY\VC\TOOLS\MSVC\14.36.32532\INCLUDE\ATOMIC
C:\PROGRAM FILES\MICROSOFT VISUAL STUDIO\2022\COMMUNITY\VC\TOOLS\MSVC\14.36.32532\INCLUDE\XTHREADS.H
C:\PROGRAM FILES\MICROSOFT VISUAL STUDIO\2022\COMMUNITY\VC\TOOLS\MSVC\14.36.32532\INCLUDE\XTIMEC.H
C:\PROGRAM FILES\MICROSOFT VISUAL STUDIO\2022\COMMUNITY\VC\TOOLS\MSVC\14.36.32532\INCLUDE\CTIME
C:\PROGRAM FILES (X86)\WINDOWS KITS\10\INCLUDE\10.0.22000.0\UCRT\TIME.H
D:\PROGRAMM FILES\QT\6.2.4\MSVC2019_64\INCLUDE\QTCORE\QGLOBALSTATIC.H
D:\PROGRAMM FILES\QT\6.2.4\MSVC2019_64\INCLUDE\QTCORE\QNUMERIC.H
C:\PROGRAM FILES\MICROSOFT VISUAL STUDIO\2022\COMMUNITY\VC\TOOLS\MSVC\14.36.32532\INCLUDE\CMATH
C:\PROGRAM FILES\MICROSOFT VISUAL STUDIO\2022\COMMUNITY\VC\TOOLS\MSVC\14.36.32532\INCLUDE\INTRIN.H
C:\PROGRAM FILES\MICROSOFT VISUAL STUDIO\2022\COMMUNITY\VC\TOOLS\MSVC\14.36.32532\INCLUDE\SETJMP.H
C:\PROGRAM FILES\MICROSOFT VISUAL STUDIO\2022\COMMUNITY\VC\TOOLS\MSVC\14.36.32532\INCLUDE\IMMINTRIN.H
C:\PROGRAM FILES\MICROSOFT VISUAL STUDIO\2022\COMMUNITY\VC\TOOLS\MSVC\14.36.32532\INCLUDE\WMMINTRIN.H
C:\PROGRAM FILES\MICROSOFT VISUAL STUDIO\2022\COMMUNITY\VC\TOOLS\MSVC\14.36.32532\INCLUDE\NMMINTRIN.H
C:\PROGRAM FILES\MICROSOFT VISUAL STUDIO\2022\COMMUNITY\VC\TOOLS\MSVC\14.36.32532\INCLUDE\SMMINTRIN.H
C:\PROGRAM FILES\MICROSOFT VISUAL STUDIO\2022\COMMUNITY\VC\TOOLS\MSVC\14.36.32532\INCLUDE\TMMINTRIN.H
C:\PROGRAM FILES\MICROSOFT VISUAL STUDIO\2022\COMMUNITY\VC\TOOLS\MSVC\14.36.32532\INCLUDE\PMMINTRIN.H
C:\PROGRAM FILES\MICROSOFT VISUAL STUDIO\2022\COMMUNITY\VC\TOOLS\MSVC\14.36.32532\INCLUDE\EMMINTRIN.H
C:\PROGRAM FILES\MICROSOFT VISUAL STUDIO\2022\COMMUNITY\VC\TOOLS\MSVC\14.36.32532\INCLUDE\XMMINTRIN.H
C:\PROGRAM FILES\MICROSOFT VISUAL STUDIO\2022\COMMUNITY\VC\TOOLS\MSVC\14.36.32532\INCLUDE\MMINTRIN.H
C:\PROGRAM FILES\MICROSOFT VISUAL STUDIO\2022\COMMUNITY\VC\TOOLS\MSVC\14.36.32532\INCLUDE\ZMMINTRIN.H
C:\PROGRAM FILES\MICROSOFT VISUAL STUDIO\2022\COMMUNITY\VC\TOOLS\MSVC\14.36.32532\INCLUDE\AMMINTRIN.H
D:\PROGRAMM FILES\QT\6.2.4\MSVC2019_64\INCLUDE\QTCORE\QVERSIONTAGGING.H
D:\PROGRAMM FILES\QT\6.2.4\MSVC2019_64\INCLUDE\QTGUI\QTGUI-CONFIG.H
D:\PROGRAMM FILES\QT\6.2.4\MSVC2019_64\INCLUDE\QTWIDGETS\QTWIDGETS-CONFIG.H
D:\PROGRAMM FILES\QT\6.2.4\MSVC2019_64\INCLUDE\QTGUI\QWINDOWDEFS.H
D:\PROGRAMM FILES\QT\6.2.4\MSVC2019_64\INCLUDE\QTCORE\QOBJECTDEFS.H
D:\PROGRAMM FILES\QT\6.2.4\MSVC2019_64\INCLUDE\QTCORE\QNAMESPACE.H
D:\PROGRAMM FILES\QT\6.2.4\MSVC2019_64\INCLUDE\QTCORE\QTMETAMACROS.H
D:\PROGRAMM FILES\QT\6.2.4\MSVC2019_64\INCLUDE\QTCORE\QOBJECTDEFS_IMPL.H
D:\PROGRAMM FILES\QT\6.2.4\MSVC2019_64\INCLUDE\QTGUI\QWINDOWDEFS_WIN.H
D:\PROGRAMM FILES\QT\6.2.4\MSVC2019_64\INCLUDE\QTCORE\QOBJECT.H
D:\PROGRAMM FILES\QT\6.2.4\MSVC2019_64\INCLUDE\QTCORE\QSTRING.H
D:\PROGRAMM FILES\QT\6.2.4\MSVC2019_64\INCLUDE\QTCORE\QCHAR.H
C:\PROGRAM FILES\MICROSOFT VISUAL STUDIO\2022\COMMUNITY\VC\TOOLS\MSVC\14.36.32532\INCLUDE\FUNCTIONAL
C:\PROGRAM FILES\MICROSOFT VISUAL STUDIO\2022\COMMUNITY\VC\TOOLS\MSVC\14.36.32532\INCLUDE\UNORDERED_MAP
C:\PROGRAM FILES\MICROSOFT VISUAL STUDIO\2022\COMMUNITY\VC\TOOLS\MSVC\14.36.32532\INCLUDE\XHASH
C:\PROGRAM FILES\MICROSOFT VISUAL STUDIO\2022\COMMUNITY\VC\TOOLS\MSVC\14.36.32532\INCLUDE\LIST
C:\PROGRAM FILES\MICROSOFT VISUAL STUDIO\2022\COMMUNITY\VC\TOOLS\MSVC\14.36.32532\INCLUDE\XPOLYMORPHIC_ALLOCATOR.H
C:\PROGRAM FILES\MICROSOFT VISUAL STUDIO\2022\COMMUNITY\VC\TOOLS\MSVC\14.36.32532\INCLUDE\VECTOR
C:\PROGRAM FILES\MICROSOFT VISUAL STUDIO\2022\COMMUNITY\VC\TOOLS\MSVC\14.36.32532\INCLUDE\__MSVC_SANITIZER_ANNOTATE_CONTAINER.HPP
C:\PROGRAM FILES\MICROSOFT VISUAL STUDIO\2022\COMMUNITY\VC\TOOLS\MSVC\14.36.32532\INCLUDE\XBIT_OPS.H
C:\PROGRAM FILES\MICROSOFT VISUAL STUDIO\2022\COMMUNITY\VC\TOOLS\MSVC\14.36.32532\INCLUDE\XNODE_HANDLE.H
D:\PROGRAMM FILES\QT\6.2.4\MSVC2019_64\INCLUDE\QTCORE\QSTRINGVIEW.H
D:\PROGRAMM FILES\QT\6.2.4\MSVC2019_64\INCLUDE\QTCORE\QBYTEARRAY.H
D:\PROGRAMM FILES\QT\6.2.4\MSVC2019_64\INCLUDE\QTCORE\QREFCOUNT.H
D:\PROGRAMM FILES\QT\6.2.4\MSVC2019_64\INCLUDE\QTCORE\QARRAYDATA.H
D:\PROGRAMM FILES\QT\6.2.4\MSVC2019_64\INCLUDE\QTCORE\QPAIR.H
D:\PROGRAMM FILES\QT\6.2.4\MSVC2019_64\INCLUDE\QTCORE\QARRAYDATAPOINTER.H
D:\PROGRAMM FILES\QT\6.2.4\MSVC2019_64\INCLUDE\QTCORE\QARRAYDATAOPS.H
D:\PROGRAMM FILES\QT\6.2.4\MSVC2019_64\INCLUDE\QTCORE\QCONTAINERTOOLS_IMPL.H
C:\PROGRAM FILES\MICROSOFT VISUAL STUDIO\2022\COMMUNITY\VC\TOOLS\MSVC\14.36.32532\INCLUDE\ITERATOR
D:\PROGRAMM FILES\QT\6.2.4\MSVC2019_64\INCLUDE\QTCORE\QBYTEARRAYALGORITHMS.H
C:\PROGRAM FILES\MICROSOFT VISUAL STUDIO\2022\COMMUNITY\VC\TOOLS\MSVC\14.36.32532\INCLUDE\STDARG.H
D:\PROGRAMM FILES\QT\6.2.4\MSVC2019_64\INCLUDE\QTCORE\QBYTEARRAYVIEW.H
C:\PROGRAM FILES\MICROSOFT VISUAL STUDIO\2022\COMMUNITY\VC\TOOLS\MSVC\14.36.32532\INCLUDE\STRING
C:\PROGRAM FILES\MICROSOFT VISUAL STUDIO\2022\COMMUNITY\VC\TOOLS\MSVC\14.36.32532\INCLUDE\XSTRING
C:\PROGRAM FILES\MICROSOFT VISUAL STUDIO\2022\COMMUNITY\VC\TOOLS\MSVC\14.36.32532\INCLUDE\CCTYPE
C:\PROGRAM FILES (X86)\WINDOWS KITS\10\INCLUDE\10.0.22000.0\UCRT\CTYPE.H
D:\PROGRAMM FILES\QT\6.2.4\MSVC2019_64\INCLUDE\QTCORE\QSTRINGLITERAL.H
D:\PROGRAMM FILES\QT\6.2.4\MSVC2019_64\INCLUDE\QTCORE\QSTRINGALGORITHMS.H
D:\PROGRAMM FILES\QT\6.2.4\MSVC2019_64\INCLUDE\QTCORE\QANYSTRINGVIEW.H
D:\PROGRAMM FILES\QT\6.2.4\MSVC2019_64\INCLUDE\QTCORE\QUTF8STRINGVIEW.H
D:\PROGRAMM FILES\QT\6.2.4\MSVC2019_64\INCLUDE\QTCORE\QSTRINGTOKENIZER.H
D:\PROGRAMM FILES\QT\6.2.4\MSVC2019_64\INCLUDE\QTCORE\QLIST.H
D:\PROGRAMM FILES\QT\6.2.4\MSVC2019_64\INCLUDE\QTCORE\QHASHFUNCTIONS.H
C:\PROGRAM FILES\MICROSOFT VISUAL STUDIO\2022\COMMUNITY\VC\TOOLS\MSVC\14.36.32532\INCLUDE\NUMERIC
D:\PROGRAMM FILES\QT\6.2.4\MSVC2019_64\INCLUDE\QTCORE\QITERATOR.H
D:\PROGRAMM FILES\QT\6.2.4\MSVC2019_64\INCLUDE\QTCORE\QBYTEARRAYLIST.H
D:\PROGRAMM FILES\QT\6.2.4\MSVC2019_64\INCLUDE\QTCORE\QSTRINGLIST.H
D:\PROGRAMM FILES\QT\6.2.4\MSVC2019_64\INCLUDE\QTCORE\QALGORITHMS.H
D:\PROGRAMM FILES\QT\6.2.4\MSVC2019_64\INCLUDE\QTCORE\QSTRINGMATCHER.H
D:\PROGRAMM FILES\QT\6.2.4\MSVC2019_64\INCLUDE\QTCORE\QSCOPEDPOINTER.H
D:\PROGRAMM FILES\QT\6.2.4\MSVC2019_64\INCLUDE\QTCORE\QMETATYPE.H
D:\PROGRAMM FILES\QT\6.2.4\MSVC2019_64\INCLUDE\QTCORE\QCOMPARE.H
D:\PROGRAMM FILES\QT\6.2.4\MSVC2019_64\INCLUDE\QTCORE\QVARLENGTHARRAY.H
D:\PROGRAMM FILES\QT\6.2.4\MSVC2019_64\INCLUDE\QTCORE\QSCOPEGUARD.H
D:\PROGRAMM FILES\QT\6.2.4\MSVC2019_64\INCLUDE\QTCORE\QDATASTREAM.H
D:\PROGRAMM FILES\QT\6.2.4\MSVC2019_64\INCLUDE\QTCORE\QIODEVICEBASE.H
D:\PROGRAMM FILES\QT\6.2.4\MSVC2019_64\INCLUDE\QTCORE\QITERABLE.H
D:\PROGRAMM FILES\QT\6.2.4\MSVC2019_64\INCLUDE\QTCORE\QMETACONTAINER.H
D:\PROGRAMM FILES\QT\6.2.4\MSVC2019_64\INCLUDE\QTCORE\QCONTAINERINFO.H
D:\PROGRAMM FILES\QT\6.2.4\MSVC2019_64\INCLUDE\QTCORE\QTAGGEDPOINTER.H
D:\PROGRAMM FILES\QT\6.2.4\MSVC2019_64\INCLUDE\QTCORE\QMATH.H
C:\PROGRAM FILES\MICROSOFT VISUAL STUDIO\2022\COMMUNITY\VC\TOOLS\MSVC\14.36.32532\INCLUDE\ARRAY
C:\PROGRAM FILES\MICROSOFT VISUAL STUDIO\2022\COMMUNITY\VC\TOOLS\MSVC\14.36.32532\INCLUDE\MAP
C:\PROGRAM FILES\MICROSOFT VISUAL STUDIO\2022\COMMUNITY\VC\TOOLS\MSVC\14.36.32532\INCLUDE\XTREE
D:\PROGRAMM FILES\QT\6.2.4\MSVC2019_64\INCLUDE\QTCORE\QOBJECT_IMPL.H
D:\PROGRAMM FILES\QT\6.2.4\MSVC2019_64\INCLUDE\QTCORE\QBINDINGSTORAGE.H
C:\PROGRAM FILES\MICROSOFT VISUAL STUDIO\2022\COMMUNITY\VC\TOOLS\MSVC\14.36.32532\INCLUDE\CHRONO
C:\PROGRAM FILES\MICROSOFT VISUAL STUDIO\2022\COMMUNITY\VC\TOOLS\MSVC\14.36.32532\INCLUDE\__MSVC_CHRONO.HPP
C:\PROGRAM FILES\MICROSOFT VISUAL STUDIO\2022\COMMUNITY\VC\TOOLS\MSVC\14.36.32532\INCLUDE\RATIO
C:\PROGRAM FILES\MICROSOFT VISUAL STUDIO\2022\COMMUNITY\VC\TOOLS\MSVC\14.36.32532\INCLUDE\SYSTEM_ERROR
C:\PROGRAM FILES\MICROSOFT VISUAL STUDIO\2022\COMMUNITY\VC\TOOLS\MSVC\14.36.32532\INCLUDE\__MSVC_SYSTEM_ERROR_ABI.HPP
C:\PROGRAM FILES\MICROSOFT VISUAL STUDIO\2022\COMMUNITY\VC\TOOLS\MSVC\14.36.32532\INCLUDE\CERRNO
C:\PROGRAM FILES\MICROSOFT VISUAL STUDIO\2022\COMMUNITY\VC\TOOLS\MSVC\14.36.32532\INCLUDE\STDEXCEPT
C:\PROGRAM FILES\MICROSOFT VISUAL STUDIO\2022\COMMUNITY\VC\TOOLS\MSVC\14.36.32532\INCLUDE\XCALL_ONCE.H
C:\PROGRAM FILES\MICROSOFT VISUAL STUDIO\2022\COMMUNITY\VC\TOOLS\MSVC\14.36.32532\INCLUDE\XERRC.H
C:\PROGRAM FILES\MICROSOFT VISUAL STUDIO\2022\COMMUNITY\VC\TOOLS\MSVC\14.36.32532\INCLUDE\XFILESYSTEM_ABI.H
D:\PROGRAMM FILES\QT\6.2.4\MSVC2019_64\INCLUDE\QTCORE\QMARGINS.H
D:\PROGRAMM FILES\QT\6.2.4\MSVC2019_64\INCLUDE\QTGUI\QPAINTDEVICE.H
D:\PROGRAMM FILES\QT\6.2.4\MSVC2019_64\INCLUDE\QTCORE\QRECT.H
D:\PROGRAMM FILES\QT\6.2.4\MSVC2019_64\INCLUDE\QTCORE\QSIZE.H
D:\PROGRAMM FILES\QT\6.2.4\MSVC2019_64\INCLUDE\QTCORE\QPOINT.H
D:\PROGRAMM FILES\QT\6.2.4\MSVC2019_64\INCLUDE\QTGUI\QPALETTE.H
D:\PROGRAMM FILES\QT\6.2.4\MSVC2019_64\INCLUDE\QTGUI\QCOLOR.H
D:\PROGRAMM FILES\QT\6.2.4\MSVC2019_64\INCLUDE\QTGUI\QRGB.H
D:\PROGRAMM FILES\QT\6.2.4\MSVC2019_64\INCLUDE\QTGUI\QRGBA64.H
D:\PROGRAMM FILES\QT\6.2.4\MSVC2019_64\INCLUDE\QTGUI\QBRUSH.H
D:\PROGRAMM FILES\QT\6.2.4\MSVC2019_64\INCLUDE\QTGUI\QIMAGE.H
D:\PROGRAMM FILES\QT\6.2.4\MSVC2019_64\INCLUDE\QTGUI\QPIXELFORMAT.H
D:\PROGRAMM FILES\QT\6.2.4\MSVC2019_64\INCLUDE\QTGUI\QTRANSFORM.H
D:\PROGRAMM FILES\QT\6.2.4\MSVC2019_64\INCLUDE\QTGUI\QPOLYGON.H
D:\PROGRAMM FILES\QT\6.2.4\MSVC2019_64\INCLUDE\QTGUI\QREGION.H
D:\PROGRAMM FILES\QT\6.2.4\MSVC2019_64\INCLUDE\QTCORE\QLINE.H
D:\PROGRAMM FILES\QT\6.2.4\MSVC2019_64\INCLUDE\QTGUI\QPIXMAP.H
D:\PROGRAMM FILES\QT\6.2.4\MSVC2019_64\INCLUDE\QTCORE\QSHAREDPOINTER.H
D:\PROGRAMM FILES\QT\6.2.4\MSVC2019_64\INCLUDE\QTCORE\QSHAREDDATA.H
D:\PROGRAMM FILES\QT\6.2.4\MSVC2019_64\INCLUDE\QTCORE\QSHAREDPOINTER_IMPL.H
D:\PROGRAMM FILES\QT\6.2.4\MSVC2019_64\INCLUDE\QTGUI\QFONT.H
D:\PROGRAMM FILES\QT\6.2.4\MSVC2019_64\INCLUDE\QTGUI\QFONTMETRICS.H
D:\PROGRAMM FILES\QT\6.2.4\MSVC2019_64\INCLUDE\QTGUI\QFONTINFO.H
D:\PROGRAMM FILES\QT\6.2.4\MSVC2019_64\INCLUDE\QTWIDGETS\QSIZEPOLICY.H
D:\PROGRAMM FILES\QT\6.2.4\MSVC2019_64\INCLUDE\QTGUI\QCURSOR.H
D:\PROGRAMM FILES\QT\6.2.4\MSVC2019_64\INCLUDE\QTGUI\QBITMAP.H
D:\PROGRAMM FILES\QT\6.2.4\MSVC2019_64\INCLUDE\QTGUI\QKEYSEQUENCE.H
D:\CODING\QTPROJECTS\TIC-TAC-TOE\TIC-TAC-TOE\X64\DEBUG\UIC\UI_TICTACTOE.H
D:\PROGRAMM FILES\QT\6.2.4\MSVC2019_64\INCLUDE\QTCORE\QVARIANT
D:\PROGRAMM FILES\QT\6.2.4\MSVC2019_64\INCLUDE\QTCORE\QVARIANT.H
D:\PROGRAMM FILES\QT\6.2.4\MSVC2019_64\INCLUDE\QTCORE\QMAP.H
D:\PROGRAMM FILES\QT\6.2.4\MSVC2019_64\INCLUDE\QTCORE\QSHAREDDATA_IMPL.H
D:\PROGRAMM FILES\QT\6.2.4\MSVC2019_64\INCLUDE\QTCORE\QHASH.H
D:\PROGRAMM FILES\QT\6.2.4\MSVC2019_64\INCLUDE\QTCORE\QDEBUG.H
D:\PROGRAMM FILES\QT\6.2.4\MSVC2019_64\INCLUDE\QTCORE\QTEXTSTREAM.H
D:\PROGRAMM FILES\QT\6.2.4\MSVC2019_64\INCLUDE\QTCORE\QSTRINGCONVERTER.H
D:\PROGRAMM FILES\QT\6.2.4\MSVC2019_64\INCLUDE\QTCORE\QSET.H
D:\PROGRAMM FILES\QT\6.2.4\MSVC2019_64\INCLUDE\QTCORE\QCONTIGUOUSCACHE.H
D:\PROGRAMM FILES\QT\6.2.4\MSVC2019_64\INCLUDE\QTWIDGETS\QAPPLICATION
D:\PROGRAMM FILES\QT\6.2.4\MSVC2019_64\INCLUDE\QTWIDGETS\QAPPLICATION.H
D:\PROGRAMM FILES\QT\6.2.4\MSVC2019_64\INCLUDE\QTCORE\QCOREAPPLICATION.H
D:\PROGRAMM FILES\QT\6.2.4\MSVC2019_64\INCLUDE\QTCORE\QCOREEVENT.H
D:\PROGRAMM FILES\QT\6.2.4\MSVC2019_64\INCLUDE\QTCORE\QEVENTLOOP.H
D:\PROGRAMM FILES\QT\6.2.4\MSVC2019_64\INCLUDE\QTCORE\QNATIVEINTERFACE.H
D:\PROGRAMM FILES\QT\6.2.4\MSVC2019_64\INCLUDE\QTCORE\QCOREAPPLICATION_PLATFORM.H
D:\PROGRAMM FILES\QT\6.2.4\MSVC2019_64\INCLUDE\QTGUI\QGUIAPPLICATION.H
D:\PROGRAMM FILES\QT\6.2.4\MSVC2019_64\INCLUDE\QTGUI\QINPUTMETHOD.H
D:\PROGRAMM FILES\QT\6.2.4\MSVC2019_64\INCLUDE\QTCORE\QLOCALE.H
D:\PROGRAMM FILES\QT\6.2.4\MSVC2019_64\INCLUDE\QTGUI\QGUIAPPLICATION_PLATFORM.H
D:\PROGRAMM FILES\QT\6.2.4\MSVC2019_64\INCLUDE\QTWIDGETS\QMESSAGEBOX
D:\PROGRAMM FILES\QT\6.2.4\MSVC2019_64\INCLUDE\QTWIDGETS\QMESSAGEBOX.H
D:\PROGRAMM FILES\QT\6.2.4\MSVC2019_64\INCLUDE\QTWIDGETS\QDIALOG.H
D:\PROGRAMM FILES\QT\6.2.4\MSVC2019_64\INCLUDE\QTWIDGETS\QPUSHBUTTON
D:\PROGRAMM FILES\QT\6.2.4\MSVC2019_64\INCLUDE\QTWIDGETS\QPUSHBUTTON.H
D:\PROGRAMM FILES\QT\6.2.4\MSVC2019_64\INCLUDE\QTWIDGETS\QABSTRACTBUTTON.H
D:\PROGRAMM FILES\QT\6.2.4\MSVC2019_64\INCLUDE\QTGUI\QICON.H
D:\PROGRAMM FILES\QT\6.2.4\MSVC2019_64\INCLUDE\QTWIDGETS\QGRIDLAYOUT
D:\PROGRAMM FILES\QT\6.2.4\MSVC2019_64\INCLUDE\QTWIDGETS\QGRIDLAYOUT.H
D:\PROGRAMM FILES\QT\6.2.4\MSVC2019_64\INCLUDE\QTWIDGETS\QLAYOUT.H
D:\PROGRAMM FILES\QT\6.2.4\MSVC2019_64\INCLUDE\QTWIDGETS\QLAYOUTITEM.H
D:\PROGRAMM FILES\QT\6.2.4\MSVC2019_64\INCLUDE\QTWIDGETS\QBOXLAYOUT.H
^D:\CODING\QTPROJECTS\TIC-TAC-TOE\TIC-TAC-TOE\TICTACTOE.CPP
C:\WINDOWS\GLOBALIZATION\SORTING\SORTDEFAULT.NLS
C:\PROGRAM FILES\MICROSOFT VISUAL STUDIO\2022\COMMUNITY\VC\TOOLS\MSVC\14.36.32532\BIN\HOSTX64\X64\1049\CLUI.DLL
C:\WINDOWS\SYSTEM32\TZRES.DLL
D:\CODING\QTPROJECTS\TIC-TAC-TOE\TIC-TAC-TOE\TICTACTOE.H
D:\PROGRAMM FILES\QT\6.2.4\MSVC2019_64\INCLUDE\QTWIDGETS\QWIDGET
D:\PROGRAMM FILES\QT\6.2.4\MSVC2019_64\INCLUDE\QTWIDGETS\QWIDGET.H
D:\PROGRAMM FILES\QT\6.2.4\MSVC2019_64\INCLUDE\QTWIDGETS\QTWIDGETSGLOBAL.H
D:\PROGRAMM FILES\QT\6.2.4\MSVC2019_64\INCLUDE\QTGUI\QTGUIGLOBAL.H
D:\PROGRAMM FILES\QT\6.2.4\MSVC2019_64\INCLUDE\QTCORE\QGLOBAL.H
C:\PROGRAM FILES\MICROSOFT VISUAL STUDIO\2022\COMMUNITY\VC\TOOLS\MSVC\14.36.32532\INCLUDE\TYPE_TRAITS
C:\PROGRAM FILES\MICROSOFT VISUAL STUDIO\2022\COMMUNITY\VC\TOOLS\MSVC\14.36.32532\INCLUDE\YVALS_CORE.H
C:\PROGRAM FILES\MICROSOFT VISUAL STUDIO\2022\COMMUNITY\VC\TOOLS\MSVC\14.36.32532\INCLUDE\VCRUNTIME.H
C:\PROGRAM FILES\MICROSOFT VISUAL STUDIO\2022\COMMUNITY\VC\TOOLS\MSVC\14.36.32532\INCLUDE\SAL.H
C:\PROGRAM FILES\MICROSOFT VISUAL STUDIO\2022\COMMUNITY\VC\TOOLS\MSVC\14.36.32532\INCLUDE\CONCURRENCYSAL.H
C:\PROGRAM FILES\MICROSOFT VISUAL STUDIO\2022\COMMUNITY\VC\TOOLS\MSVC\14.36.32532\INCLUDE\VADEFS.H
C:\PROGRAM FILES\MICROSOFT VISUAL STUDIO\2022\COMMUNITY\VC\TOOLS\MSVC\14.36.32532\INCLUDE\XKEYCHECK.H
C:\PROGRAM FILES\MICROSOFT VISUAL STUDIO\2022\COMMUNITY\VC\TOOLS\MSVC\14.36.32532\INCLUDE\CSTDINT
C:\PROGRAM FILES\MICROSOFT VISUAL STUDIO\2022\COMMUNITY\VC\TOOLS\MSVC\14.36.32532\INCLUDE\STDINT.H
C:\PROGRAM FILES\MICROSOFT VISUAL STUDIO\2022\COMMUNITY\VC\TOOLS\MSVC\14.36.32532\INCLUDE\XSTDDEF
C:\PROGRAM FILES\MICROSOFT VISUAL STUDIO\2022\COMMUNITY\VC\TOOLS\MSVC\14.36.32532\INCLUDE\CSTDDEF
C:\PROGRAM FILES (X86)\WINDOWS KITS\10\INCLUDE\10.0.22000.0\UCRT\STDDEF.H
C:\PROGRAM FILES (X86)\WINDOWS KITS\10\INCLUDE\10.0.22000.0\UCRT\CORECRT.H
C:\PROGRAM FILES\MICROSOFT VISUAL STUDIO\2022\COMMUNITY\VC\TOOLS\MSVC\14.36.32532\INCLUDE\XTR1COMMON
C:\PROGRAM FILES\MICROSOFT VISUAL STUDIO\2022\COMMUNITY\VC\TOOLS\MSVC\14.36.32532\INCLUDE\CSTDLIB
C:\PROGRAM FILES (X86)\WINDOWS KITS\10\INCLUDE\10.0.22000.0\UCRT\MATH.H
C:\PROGRAM FILES (X86)\WINDOWS KITS\10\INCLUDE\10.0.22000.0\UCRT\CORECRT_MATH.H
C:\PROGRAM FILES (X86)\WINDOWS KITS\10\INCLUDE\10.0.22000.0\UCRT\STDLIB.H
C:\PROGRAM FILES (X86)\WINDOWS KITS\10\INCLUDE\10.0.22000.0\UCRT\CORECRT_MALLOC.H
C:\PROGRAM FILES (X86)\WINDOWS KITS\10\INCLUDE\10.0.22000.0\UCRT\CORECRT_SEARCH.H
C:\PROGRAM FILES (X86)\WINDOWS KITS\10\INCLUDE\10.0.22000.0\UCRT\CORECRT_WSTDLIB.H
C:\PROGRAM FILES\MICROSOFT VISUAL STUDIO\2022\COMMUNITY\VC\TOOLS\MSVC\14.36.32532\INCLUDE\LIMITS.H
C:\PROGRAM FILES\MICROSOFT VISUAL STUDIO\2022\COMMUNITY\VC\TOOLS\MSVC\14.36.32532\INCLUDE\INITIALIZER_LIST
C:\PROGRAM FILES\MICROSOFT VISUAL STUDIO\2022\COMMUNITY\VC\TOOLS\MSVC\14.36.32532\INCLUDE\UTILITY
C:\PROGRAM FILES (X86)\WINDOWS KITS\10\INCLUDE\10.0.22000.0\UCRT\ASSERT.H
D:\PROGRAMM FILES\QT\6.2.4\MSVC2019_64\INCLUDE\QTCORE\QCONFIG.H
D:\PROGRAMM FILES\QT\6.2.4\MSVC2019_64\INCLUDE\QTCORE\QTCORE-CONFIG.H
D:\PROGRAMM FILES\QT\6.2.4\MSVC2019_64\INCLUDE\QTCORE\QSYSTEMDETECTION.H
D:\PROGRAMM FILES\QT\6.2.4\MSVC2019_64\INCLUDE\QTCORE\QPROCESSORDETECTION.H
D:\PROGRAMM FILES\QT\6.2.4\MSVC2019_64\INCLUDE\QTCORE\QCOMPILERDETECTION.H
C:\PROGRAM FILES\MICROSOFT VISUAL STUDIO\2022\COMMUNITY\VC\TOOLS\MSVC\14.36.32532\INCLUDE\ALGORITHM
C:\PROGRAM FILES\MICROSOFT VISUAL STUDIO\2022\COMMUNITY\VC\TOOLS\MSVC\14.36.32532\INCLUDE\XMEMORY
C:\PROGRAM FILES\MICROSOFT VISUAL STUDIO\2022\COMMUNITY\VC\TOOLS\MSVC\14.36.32532\INCLUDE\LIMITS
C:\PROGRAM FILES\MICROSOFT VISUAL STUDIO\2022\COMMUNITY\VC\TOOLS\MSVC\14.36.32532\INCLUDE\CFLOAT
C:\PROGRAM FILES (X86)\WINDOWS KITS\10\INCLUDE\10.0.22000.0\UCRT\FLOAT.H
C:\PROGRAM FILES\MICROSOFT VISUAL STUDIO\2022\COMMUNITY\VC\TOOLS\MSVC\14.36.32532\INCLUDE\CLIMITS
C:\PROGRAM FILES\MICROSOFT VISUAL STUDIO\2022\COMMUNITY\VC\TOOLS\MSVC\14.36.32532\INCLUDE\CWCHAR
C:\PROGRAM FILES\MICROSOFT VISUAL STUDIO\2022\COMMUNITY\VC\TOOLS\MSVC\14.36.32532\INCLUDE\CSTDIO
C:\PROGRAM FILES (X86)\WINDOWS KITS\10\INCLUDE\10.0.22000.0\UCRT\STDIO.H
C:\PROGRAM FILES (X86)\WINDOWS KITS\10\INCLUDE\10.0.22000.0\UCRT\CORECRT_WSTDIO.H
C:\PROGRAM FILES (X86)\WINDOWS KITS\10\INCLUDE\10.0.22000.0\UCRT\CORECRT_STDIO_CONFIG.H
C:\PROGRAM FILES (X86)\WINDOWS KITS\10\INCLUDE\10.0.22000.0\UCRT\WCHAR.H
C:\PROGRAM FILES (X86)\WINDOWS KITS\10\INCLUDE\10.0.22000.0\UCRT\CORECRT_MEMCPY_S.H
C:\PROGRAM FILES (X86)\WINDOWS KITS\10\INCLUDE\10.0.22000.0\UCRT\ERRNO.H
C:\PROGRAM FILES\MICROSOFT VISUAL STUDIO\2022\COMMUNITY\VC\TOOLS\MSVC\14.36.32532\INCLUDE\VCRUNTIME_STRING.H
C:\PROGRAM FILES (X86)\WINDOWS KITS\10\INCLUDE\10.0.22000.0\UCRT\CORECRT_WCONIO.H
C:\PROGRAM FILES (X86)\WINDOWS KITS\10\INCLUDE\10.0.22000.0\UCRT\CORECRT_WCTYPE.H
C:\PROGRAM FILES (X86)\WINDOWS KITS\10\INCLUDE\10.0.22000.0\UCRT\CORECRT_WDIRECT.H
C:\PROGRAM FILES (X86)\WINDOWS KITS\10\INCLUDE\10.0.22000.0\UCRT\CORECRT_WIO.H
C:\PROGRAM FILES (X86)\WINDOWS KITS\10\INCLUDE\10.0.22000.0\UCRT\CORECRT_SHARE.H
C:\PROGRAM FILES (X86)\WINDOWS KITS\10\INCLUDE\10.0.22000.0\UCRT\CORECRT_WPROCESS.H
C:\PROGRAM FILES (X86)\WINDOWS KITS\10\INCLUDE\10.0.22000.0\UCRT\CORECRT_WSTRING.H
C:\PROGRAM FILES (X86)\WINDOWS KITS\10\INCLUDE\10.0.22000.0\UCRT\CORECRT_WTIME.H
C:\PROGRAM FILES (X86)\WINDOWS KITS\10\INCLUDE\10.0.22000.0\UCRT\SYS\STAT.H
C:\PROGRAM FILES (X86)\WINDOWS KITS\10\INCLUDE\10.0.22000.0\UCRT\SYS\TYPES.H
C:\PROGRAM FILES\MICROSOFT VISUAL STUDIO\2022\COMMUNITY\VC\TOOLS\MSVC\14.36.32532\INCLUDE\INTRIN0.H
C:\PROGRAM FILES\MICROSOFT VISUAL STUDIO\2022\COMMUNITY\VC\TOOLS\MSVC\14.36.32532\INCLUDE\INTRIN0.INL.H
C:\PROGRAM FILES\MICROSOFT VISUAL STUDIO\2022\COMMUNITY\VC\TOOLS\MSVC\14.36.32532\INCLUDE\ISA_AVAILABILITY.H
C:\PROGRAM FILES\MICROSOFT VISUAL STUDIO\2022\COMMUNITY\VC\TOOLS\MSVC\14.36.32532\INCLUDE\NEW
C:\PROGRAM FILES\MICROSOFT VISUAL STUDIO\2022\COMMUNITY\VC\TOOLS\MSVC\14.36.32532\INCLUDE\EXCEPTION
C:\PROGRAM FILES\MICROSOFT VISUAL STUDIO\2022\COMMUNITY\VC\TOOLS\MSVC\14.36.32532\INCLUDE\YVALS.H
C:\PROGRAM FILES (X86)\WINDOWS KITS\10\INCLUDE\10.0.22000.0\UCRT\CRTDBG.H
C:\PROGRAM FILES\MICROSOFT VISUAL STUDIO\2022\COMMUNITY\VC\TOOLS\MSVC\14.36.32532\INCLUDE\VCRUNTIME_NEW_DEBUG.H
C:\PROGRAM FILES\MICROSOFT VISUAL STUDIO\2022\COMMUNITY\VC\TOOLS\MSVC\14.36.32532\INCLUDE\VCRUNTIME_NEW.H
C:\PROGRAM FILES\MICROSOFT VISUAL STUDIO\2022\COMMUNITY\VC\TOOLS\MSVC\14.36.32532\INCLUDE\CRTDEFS.H
C:\PROGRAM FILES\MICROSOFT VISUAL STUDIO\2022\COMMUNITY\VC\TOOLS\MSVC\14.36.32532\INCLUDE\USE_ANSI.H
C:\PROGRAM FILES (X86)\WINDOWS KITS\10\INCLUDE\10.0.22000.0\UCRT\MALLOC.H
C:\PROGRAM FILES\MICROSOFT VISUAL STUDIO\2022\COMMUNITY\VC\TOOLS\MSVC\14.36.32532\INCLUDE\VCRUNTIME_EXCEPTION.H
C:\PROGRAM FILES\MICROSOFT VISUAL STUDIO\2022\COMMUNITY\VC\TOOLS\MSVC\14.36.32532\INCLUDE\EH.H
C:\PROGRAM FILES (X86)\WINDOWS KITS\10\INCLUDE\10.0.22000.0\UCRT\CORECRT_TERMINATE.H
C:\PROGRAM FILES\MICROSOFT VISUAL STUDIO\2022\COMMUNITY\VC\TOOLS\MSVC\14.36.32532\INCLUDE\XATOMIC.H
C:\PROGRAM FILES\MICROSOFT VISUAL STUDIO\2022\COMMUNITY\VC\TOOLS\MSVC\14.36.32532\INCLUDE\XUTILITY
C:\PROGRAM FILES\MICROSOFT VISUAL STUDIO\2022\COMMUNITY\VC\TOOLS\MSVC\14.36.32532\INCLUDE\__MSVC_ITER_CORE.HPP
C:\PROGRAM FILES\MICROSOFT VISUAL STUDIO\2022\COMMUNITY\VC\TOOLS\MSVC\14.36.32532\INCLUDE\CSTRING
C:\PROGRAM FILES (X86)\WINDOWS KITS\10\INCLUDE\10.0.22000.0\UCRT\STRING.H
C:\PROGRAM FILES (X86)\WINDOWS KITS\10\INCLUDE\10.0.22000.0\UCRT\CORECRT_MEMORY.H
D:\PROGRAMM FILES\QT\6.2.4\MSVC2019_64\INCLUDE\QTCORE\QTYPEINFO.H
D:\PROGRAMM FILES\QT\6.2.4\MSVC2019_64\INCLUDE\QTCORE\QCONTAINERFWD.H
C:\PROGRAM FILES\MICROSOFT VISUAL STUDIO\2022\COMMUNITY\VC\TOOLS\MSVC\14.36.32532\INCLUDE\VARIANT
C:\PROGRAM FILES\MICROSOFT VISUAL STUDIO\2022\COMMUNITY\VC\TOOLS\MSVC\14.36.32532\INCLUDE\XSMF_CONTROL.H
C:\PROGRAM FILES\MICROSOFT VISUAL STUDIO\2022\COMMUNITY\VC\TOOLS\MSVC\14.36.32532\INCLUDE\OPTIONAL
C:\PROGRAM FILES\MICROSOFT VISUAL STUDIO\2022\COMMUNITY\VC\TOOLS\MSVC\14.36.32532\INCLUDE\TUPLE
D:\PROGRAMM FILES\QT\6.2.4\MSVC2019_64\INCLUDE\QTCORE\QSYSINFO.H
D:\PROGRAMM FILES\QT\6.2.4\MSVC2019_64\INCLUDE\QTCORE\QLOGGING.H
D:\PROGRAMM FILES\QT\6.2.4\MSVC2019_64\INCLUDE\QTCORE\QFLAGS.H
D:\PROGRAMM FILES\QT\6.2.4\MSVC2019_64\INCLUDE\QTCORE\QATOMIC.H
D:\PROGRAMM FILES\QT\6.2.4\MSVC2019_64\INCLUDE\QTCORE\QBASICATOMIC.H
D:\PROGRAMM FILES\QT\6.2.4\MSVC2019_64\INCLUDE\QTCORE\QATOMIC_CXX11.H
D:\PROGRAMM FILES\QT\6.2.4\MSVC2019_64\INCLUDE\QTCORE\QGENERICATOMIC.H
C:\PROGRAM FILES\MICROSOFT VISUAL STUDIO\2022\COMMUNITY\VC\TOOLS\MSVC\14.36.32532\INCLUDE\ATOMIC
C:\PROGRAM FILES\MICROSOFT VISUAL STUDIO\2022\COMMUNITY\VC\TOOLS\MSVC\14.36.32532\INCLUDE\XTHREADS.H
C:\PROGRAM FILES\MICROSOFT VISUAL STUDIO\2022\COMMUNITY\VC\TOOLS\MSVC\14.36.32532\INCLUDE\XTIMEC.H
C:\PROGRAM FILES\MICROSOFT VISUAL STUDIO\2022\COMMUNITY\VC\TOOLS\MSVC\14.36.32532\INCLUDE\CTIME
C:\PROGRAM FILES (X86)\WINDOWS KITS\10\INCLUDE\10.0.22000.0\UCRT\TIME.H
D:\PROGRAMM FILES\QT\6.2.4\MSVC2019_64\INCLUDE\QTCORE\QGLOBALSTATIC.H
D:\PROGRAMM FILES\QT\6.2.4\MSVC2019_64\INCLUDE\QTCORE\QNUMERIC.H
C:\PROGRAM FILES\MICROSOFT VISUAL STUDIO\2022\COMMUNITY\VC\TOOLS\MSVC\14.36.32532\INCLUDE\CMATH
C:\PROGRAM FILES\MICROSOFT VISUAL STUDIO\2022\COMMUNITY\VC\TOOLS\MSVC\14.36.32532\INCLUDE\INTRIN.H
C:\PROGRAM FILES\MICROSOFT VISUAL STUDIO\2022\COMMUNITY\VC\TOOLS\MSVC\14.36.32532\INCLUDE\SETJMP.H
C:\PROGRAM FILES\MICROSOFT VISUAL STUDIO\2022\COMMUNITY\VC\TOOLS\MSVC\14.36.32532\INCLUDE\IMMINTRIN.H
C:\PROGRAM FILES\MICROSOFT VISUAL STUDIO\2022\COMMUNITY\VC\TOOLS\MSVC\14.36.32532\INCLUDE\WMMINTRIN.H
C:\PROGRAM FILES\MICROSOFT VISUAL STUDIO\2022\COMMUNITY\VC\TOOLS\MSVC\14.36.32532\INCLUDE\NMMINTRIN.H
C:\PROGRAM FILES\MICROSOFT VISUAL STUDIO\2022\COMMUNITY\VC\TOOLS\MSVC\14.36.32532\INCLUDE\SMMINTRIN.H
C:\PROGRAM FILES\MICROSOFT VISUAL STUDIO\2022\COMMUNITY\VC\TOOLS\MSVC\14.36.32532\INCLUDE\TMMINTRIN.H
C:\PROGRAM FILES\MICROSOFT VISUAL STUDIO\2022\COMMUNITY\VC\TOOLS\MSVC\14.36.32532\INCLUDE\PMMINTRIN.H
C:\PROGRAM FILES\MICROSOFT VISUAL STUDIO\2022\COMMUNITY\VC\TOOLS\MSVC\14.36.32532\INCLUDE\EMMINTRIN.H
C:\PROGRAM FILES\MICROSOFT VISUAL STUDIO\2022\COMMUNITY\VC\TOOLS\MSVC\14.36.32532\INCLUDE\XMMINTRIN.H
C:\PROGRAM FILES\MICROSOFT VISUAL STUDIO\2022\COMMUNITY\VC\TOOLS\MSVC\14.36.32532\INCLUDE\MMINTRIN.H
C:\PROGRAM FILES\MICROSOFT VISUAL STUDIO\2022\COMMUNITY\VC\TOOLS\MSVC\14.36.32532\INCLUDE\ZMMINTRIN.H
C:\PROGRAM FILES\MICROSOFT VISUAL STUDIO\2022\COMMUNITY\VC\TOOLS\MSVC\14.36.32532\INCLUDE\AMMINTRIN.H
D:\PROGRAMM FILES\QT\6.2.4\MSVC2019_64\INCLUDE\QTCORE\QVERSIONTAGGING.H
D:\PROGRAMM FILES\QT\6.2.4\MSVC2019_64\INCLUDE\QTGUI\QTGUI-CONFIG.H
D:\PROGRAMM FILES\QT\6.2.4\MSVC2019_64\INCLUDE\QTWIDGETS\QTWIDGETS-CONFIG.H
D:\PROGRAMM FILES\QT\6.2.4\MSVC2019_64\INCLUDE\QTGUI\QWINDOWDEFS.H
D:\PROGRAMM FILES\QT\6.2.4\MSVC2019_64\INCLUDE\QTCORE\QOBJECTDEFS.H
D:\PROGRAMM FILES\QT\6.2.4\MSVC2019_64\INCLUDE\QTCORE\QNAMESPACE.H
D:\PROGRAMM FILES\QT\6.2.4\MSVC2019_64\INCLUDE\QTCORE\QTMETAMACROS.H
D:\PROGRAMM FILES\QT\6.2.4\MSVC2019_64\INCLUDE\QTCORE\QOBJECTDEFS_IMPL.H
D:\PROGRAMM FILES\QT\6.2.4\MSVC2019_64\INCLUDE\QTGUI\QWINDOWDEFS_WIN.H
D:\PROGRAMM FILES\QT\6.2.4\MSVC2019_64\INCLUDE\QTCORE\QOBJECT.H
D:\PROGRAMM FILES\QT\6.2.4\MSVC2019_64\INCLUDE\QTCORE\QSTRING.H
D:\PROGRAMM FILES\QT\6.2.4\MSVC2019_64\INCLUDE\QTCORE\QCHAR.H
C:\PROGRAM FILES\MICROSOFT VISUAL STUDIO\2022\COMMUNITY\VC\TOOLS\MSVC\14.36.32532\INCLUDE\FUNCTIONAL
C:\PROGRAM FILES\MICROSOFT VISUAL STUDIO\2022\COMMUNITY\VC\TOOLS\MSVC\14.36.32532\INCLUDE\TYPEINFO
C:\PROGRAM FILES\MICROSOFT VISUAL STUDIO\2022\COMMUNITY\VC\TOOLS\MSVC\14.36.32532\INCLUDE\VCRUNTIME_TYPEINFO.H
C:\PROGRAM FILES\MICROSOFT VISUAL STUDIO\2022\COMMUNITY\VC\TOOLS\MSVC\14.36.32532\INCLUDE\UNORDERED_MAP
C:\PROGRAM FILES\MICROSOFT VISUAL STUDIO\2022\COMMUNITY\VC\TOOLS\MSVC\14.36.32532\INCLUDE\XHASH
C:\PROGRAM FILES\MICROSOFT VISUAL STUDIO\2022\COMMUNITY\VC\TOOLS\MSVC\14.36.32532\INCLUDE\LIST
C:\PROGRAM FILES\MICROSOFT VISUAL STUDIO\2022\COMMUNITY\VC\TOOLS\MSVC\14.36.32532\INCLUDE\XPOLYMORPHIC_ALLOCATOR.H
C:\PROGRAM FILES\MICROSOFT VISUAL STUDIO\2022\COMMUNITY\VC\TOOLS\MSVC\14.36.32532\INCLUDE\VECTOR
C:\PROGRAM FILES\MICROSOFT VISUAL STUDIO\2022\COMMUNITY\VC\TOOLS\MSVC\14.36.32532\INCLUDE\__MSVC_SANITIZER_ANNOTATE_CONTAINER.HPP
C:\PROGRAM FILES\MICROSOFT VISUAL STUDIO\2022\COMMUNITY\VC\TOOLS\MSVC\14.36.32532\INCLUDE\XBIT_OPS.H
C:\PROGRAM FILES\MICROSOFT VISUAL STUDIO\2022\COMMUNITY\VC\TOOLS\MSVC\14.36.32532\INCLUDE\XNODE_HANDLE.H
D:\PROGRAMM FILES\QT\6.2.4\MSVC2019_64\INCLUDE\QTCORE\QSTRINGVIEW.H
D:\PROGRAMM FILES\QT\6.2.4\MSVC2019_64\INCLUDE\QTCORE\QBYTEARRAY.H
D:\PROGRAMM FILES\QT\6.2.4\MSVC2019_64\INCLUDE\QTCORE\QREFCOUNT.H
D:\PROGRAMM FILES\QT\6.2.4\MSVC2019_64\INCLUDE\QTCORE\QARRAYDATA.H
D:\PROGRAMM FILES\QT\6.2.4\MSVC2019_64\INCLUDE\QTCORE\QPAIR.H
D:\PROGRAMM FILES\QT\6.2.4\MSVC2019_64\INCLUDE\QTCORE\QARRAYDATAPOINTER.H
D:\PROGRAMM FILES\QT\6.2.4\MSVC2019_64\INCLUDE\QTCORE\QARRAYDATAOPS.H
D:\PROGRAMM FILES\QT\6.2.4\MSVC2019_64\INCLUDE\QTCORE\QCONTAINERTOOLS_IMPL.H
C:\PROGRAM FILES\MICROSOFT VISUAL STUDIO\2022\COMMUNITY\VC\TOOLS\MSVC\14.36.32532\INCLUDE\ITERATOR
C:\PROGRAM FILES\MICROSOFT VISUAL STUDIO\2022\COMMUNITY\VC\TOOLS\MSVC\14.36.32532\INCLUDE\IOSFWD
C:\PROGRAM FILES\MICROSOFT VISUAL STUDIO\2022\COMMUNITY\VC\TOOLS\MSVC\14.36.32532\INCLUDE\MEMORY
D:\PROGRAMM FILES\QT\6.2.4\MSVC2019_64\INCLUDE\QTCORE\QBYTEARRAYALGORITHMS.H
C:\PROGRAM FILES\MICROSOFT VISUAL STUDIO\2022\COMMUNITY\VC\TOOLS\MSVC\14.36.32532\INCLUDE\STDARG.H
D:\PROGRAMM FILES\QT\6.2.4\MSVC2019_64\INCLUDE\QTCORE\QBYTEARRAYVIEW.H
C:\PROGRAM FILES\MICROSOFT VISUAL STUDIO\2022\COMMUNITY\VC\TOOLS\MSVC\14.36.32532\INCLUDE\STRING
C:\PROGRAM FILES\MICROSOFT VISUAL STUDIO\2022\COMMUNITY\VC\TOOLS\MSVC\14.36.32532\INCLUDE\XSTRING
C:\PROGRAM FILES\MICROSOFT VISUAL STUDIO\2022\COMMUNITY\VC\TOOLS\MSVC\14.36.32532\INCLUDE\CCTYPE
C:\PROGRAM FILES (X86)\WINDOWS KITS\10\INCLUDE\10.0.22000.0\UCRT\CTYPE.H
D:\PROGRAMM FILES\QT\6.2.4\MSVC2019_64\INCLUDE\QTCORE\QSTRINGLITERAL.H
D:\PROGRAMM FILES\QT\6.2.4\MSVC2019_64\INCLUDE\QTCORE\QSTRINGALGORITHMS.H
D:\PROGRAMM FILES\QT\6.2.4\MSVC2019_64\INCLUDE\QTCORE\QANYSTRINGVIEW.H
D:\PROGRAMM FILES\QT\6.2.4\MSVC2019_64\INCLUDE\QTCORE\QUTF8STRINGVIEW.H
D:\PROGRAMM FILES\QT\6.2.4\MSVC2019_64\INCLUDE\QTCORE\QSTRINGTOKENIZER.H
D:\PROGRAMM FILES\QT\6.2.4\MSVC2019_64\INCLUDE\QTCORE\QLIST.H
D:\PROGRAMM FILES\QT\6.2.4\MSVC2019_64\INCLUDE\QTCORE\QHASHFUNCTIONS.H
C:\PROGRAM FILES\MICROSOFT VISUAL STUDIO\2022\COMMUNITY\VC\TOOLS\MSVC\14.36.32532\INCLUDE\NUMERIC
D:\PROGRAMM FILES\QT\6.2.4\MSVC2019_64\INCLUDE\QTCORE\QITERATOR.H
D:\PROGRAMM FILES\QT\6.2.4\MSVC2019_64\INCLUDE\QTCORE\QBYTEARRAYLIST.H
D:\PROGRAMM FILES\QT\6.2.4\MSVC2019_64\INCLUDE\QTCORE\QSTRINGLIST.H
D:\PROGRAMM FILES\QT\6.2.4\MSVC2019_64\INCLUDE\QTCORE\QALGORITHMS.H
D:\PROGRAMM FILES\QT\6.2.4\MSVC2019_64\INCLUDE\QTCORE\QSTRINGMATCHER.H
D:\PROGRAMM FILES\QT\6.2.4\MSVC2019_64\INCLUDE\QTCORE\QSCOPEDPOINTER.H
D:\PROGRAMM FILES\QT\6.2.4\MSVC2019_64\INCLUDE\QTCORE\QMETATYPE.H
D:\PROGRAMM FILES\QT\6.2.4\MSVC2019_64\INCLUDE\QTCORE\QCOMPARE.H
D:\PROGRAMM FILES\QT\6.2.4\MSVC2019_64\INCLUDE\QTCORE\QVARLENGTHARRAY.H
D:\PROGRAMM FILES\QT\6.2.4\MSVC2019_64\INCLUDE\QTCORE\QSCOPEGUARD.H
D:\PROGRAMM FILES\QT\6.2.4\MSVC2019_64\INCLUDE\QTCORE\QDATASTREAM.H
D:\PROGRAMM FILES\QT\6.2.4\MSVC2019_64\INCLUDE\QTCORE\QIODEVICEBASE.H
D:\PROGRAMM FILES\QT\6.2.4\MSVC2019_64\INCLUDE\QTCORE\QITERABLE.H
D:\PROGRAMM FILES\QT\6.2.4\MSVC2019_64\INCLUDE\QTCORE\QMETACONTAINER.H
D:\PROGRAMM FILES\QT\6.2.4\MSVC2019_64\INCLUDE\QTCORE\QCONTAINERINFO.H
D:\PROGRAMM FILES\QT\6.2.4\MSVC2019_64\INCLUDE\QTCORE\QTAGGEDPOINTER.H
D:\PROGRAMM FILES\QT\6.2.4\MSVC2019_64\INCLUDE\QTCORE\QMATH.H
C:\PROGRAM FILES\MICROSOFT VISUAL STUDIO\2022\COMMUNITY\VC\TOOLS\MSVC\14.36.32532\INCLUDE\ARRAY
C:\PROGRAM FILES\MICROSOFT VISUAL STUDIO\2022\COMMUNITY\VC\TOOLS\MSVC\14.36.32532\INCLUDE\MAP
C:\PROGRAM FILES\MICROSOFT VISUAL STUDIO\2022\COMMUNITY\VC\TOOLS\MSVC\14.36.32532\INCLUDE\XTREE
D:\PROGRAMM FILES\QT\6.2.4\MSVC2019_64\INCLUDE\QTCORE\QOBJECT_IMPL.H
D:\PROGRAMM FILES\QT\6.2.4\MSVC2019_64\INCLUDE\QTCORE\QBINDINGSTORAGE.H
C:\PROGRAM FILES\MICROSOFT VISUAL STUDIO\2022\COMMUNITY\VC\TOOLS\MSVC\14.36.32532\INCLUDE\CHRONO
C:\PROGRAM FILES\MICROSOFT VISUAL STUDIO\2022\COMMUNITY\VC\TOOLS\MSVC\14.36.32532\INCLUDE\__MSVC_CHRONO.HPP
C:\PROGRAM FILES\MICROSOFT VISUAL STUDIO\2022\COMMUNITY\VC\TOOLS\MSVC\14.36.32532\INCLUDE\RATIO
C:\PROGRAM FILES\MICROSOFT VISUAL STUDIO\2022\COMMUNITY\VC\TOOLS\MSVC\14.36.32532\INCLUDE\SYSTEM_ERROR
C:\PROGRAM FILES\MICROSOFT VISUAL STUDIO\2022\COMMUNITY\VC\TOOLS\MSVC\14.36.32532\INCLUDE\__MSVC_SYSTEM_ERROR_ABI.HPP
C:\PROGRAM FILES\MICROSOFT VISUAL STUDIO\2022\COMMUNITY\VC\TOOLS\MSVC\14.36.32532\INCLUDE\CERRNO
C:\PROGRAM FILES\MICROSOFT VISUAL STUDIO\2022\COMMUNITY\VC\TOOLS\MSVC\14.36.32532\INCLUDE\STDEXCEPT
C:\PROGRAM FILES\MICROSOFT VISUAL STUDIO\2022\COMMUNITY\VC\TOOLS\MSVC\14.36.32532\INCLUDE\XCALL_ONCE.H
C:\PROGRAM FILES\MICROSOFT VISUAL STUDIO\2022\COMMUNITY\VC\TOOLS\MSVC\14.36.32532\INCLUDE\XERRC.H
C:\PROGRAM FILES\MICROSOFT VISUAL STUDIO\2022\COMMUNITY\VC\TOOLS\MSVC\14.36.32532\INCLUDE\XFILESYSTEM_ABI.H
D:\PROGRAMM FILES\QT\6.2.4\MSVC2019_64\INCLUDE\QTCORE\QMARGINS.H
D:\PROGRAMM FILES\QT\6.2.4\MSVC2019_64\INCLUDE\QTGUI\QPAINTDEVICE.H
D:\PROGRAMM FILES\QT\6.2.4\MSVC2019_64\INCLUDE\QTCORE\QRECT.H
D:\PROGRAMM FILES\QT\6.2.4\MSVC2019_64\INCLUDE\QTCORE\QSIZE.H
D:\PROGRAMM FILES\QT\6.2.4\MSVC2019_64\INCLUDE\QTCORE\QPOINT.H
D:\PROGRAMM FILES\QT\6.2.4\MSVC2019_64\INCLUDE\QTGUI\QPALETTE.H
D:\PROGRAMM FILES\QT\6.2.4\MSVC2019_64\INCLUDE\QTGUI\QCOLOR.H
D:\PROGRAMM FILES\QT\6.2.4\MSVC2019_64\INCLUDE\QTGUI\QRGB.H
D:\PROGRAMM FILES\QT\6.2.4\MSVC2019_64\INCLUDE\QTGUI\QRGBA64.H
D:\PROGRAMM FILES\QT\6.2.4\MSVC2019_64\INCLUDE\QTGUI\QBRUSH.H
D:\PROGRAMM FILES\QT\6.2.4\MSVC2019_64\INCLUDE\QTGUI\QIMAGE.H
D:\PROGRAMM FILES\QT\6.2.4\MSVC2019_64\INCLUDE\QTGUI\QPIXELFORMAT.H
D:\PROGRAMM FILES\QT\6.2.4\MSVC2019_64\INCLUDE\QTGUI\QTRANSFORM.H
D:\PROGRAMM FILES\QT\6.2.4\MSVC2019_64\INCLUDE\QTGUI\QPOLYGON.H
D:\PROGRAMM FILES\QT\6.2.4\MSVC2019_64\INCLUDE\QTGUI\QREGION.H
D:\PROGRAMM FILES\QT\6.2.4\MSVC2019_64\INCLUDE\QTCORE\QLINE.H
D:\PROGRAMM FILES\QT\6.2.4\MSVC2019_64\INCLUDE\QTGUI\QPIXMAP.H
D:\PROGRAMM FILES\QT\6.2.4\MSVC2019_64\INCLUDE\QTCORE\QSHAREDPOINTER.H
D:\PROGRAMM FILES\QT\6.2.4\MSVC2019_64\INCLUDE\QTCORE\QSHAREDDATA.H
D:\PROGRAMM FILES\QT\6.2.4\MSVC2019_64\INCLUDE\QTCORE\QSHAREDPOINTER_IMPL.H
D:\PROGRAMM FILES\QT\6.2.4\MSVC2019_64\INCLUDE\QTGUI\QFONT.H
D:\PROGRAMM FILES\QT\6.2.4\MSVC2019_64\INCLUDE\QTGUI\QFONTMETRICS.H
D:\PROGRAMM FILES\QT\6.2.4\MSVC2019_64\INCLUDE\QTGUI\QFONTINFO.H
D:\PROGRAMM FILES\QT\6.2.4\MSVC2019_64\INCLUDE\QTWIDGETS\QSIZEPOLICY.H
D:\PROGRAMM FILES\QT\6.2.4\MSVC2019_64\INCLUDE\QTGUI\QCURSOR.H
D:\PROGRAMM FILES\QT\6.2.4\MSVC2019_64\INCLUDE\QTGUI\QBITMAP.H
D:\PROGRAMM FILES\QT\6.2.4\MSVC2019_64\INCLUDE\QTGUI\QKEYSEQUENCE.H
D:\CODING\QTPROJECTS\TIC-TAC-TOE\TIC-TAC-TOE\X64\DEBUG\UIC\UI_TICTACTOE.H
D:\PROGRAMM FILES\QT\6.2.4\MSVC2019_64\INCLUDE\QTCORE\QVARIANT
D:\PROGRAMM FILES\QT\6.2.4\MSVC2019_64\INCLUDE\QTCORE\QVARIANT.H
D:\PROGRAMM FILES\QT\6.2.4\MSVC2019_64\INCLUDE\QTCORE\QMAP.H
D:\PROGRAMM FILES\QT\6.2.4\MSVC2019_64\INCLUDE\QTCORE\QSHAREDDATA_IMPL.H
D:\PROGRAMM FILES\QT\6.2.4\MSVC2019_64\INCLUDE\QTCORE\QHASH.H
D:\PROGRAMM FILES\QT\6.2.4\MSVC2019_64\INCLUDE\QTCORE\QDEBUG.H
D:\PROGRAMM FILES\QT\6.2.4\MSVC2019_64\INCLUDE\QTCORE\QTEXTSTREAM.H
D:\PROGRAMM FILES\QT\6.2.4\MSVC2019_64\INCLUDE\QTCORE\QSTRINGCONVERTER.H
D:\PROGRAMM FILES\QT\6.2.4\MSVC2019_64\INCLUDE\QTCORE\QSET.H
D:\PROGRAMM FILES\QT\6.2.4\MSVC2019_64\INCLUDE\QTCORE\QCONTIGUOUSCACHE.H
D:\PROGRAMM FILES\QT\6.2.4\MSVC2019_64\INCLUDE\QTWIDGETS\QAPPLICATION
D:\PROGRAMM FILES\QT\6.2.4\MSVC2019_64\INCLUDE\QTWIDGETS\QAPPLICATION.H
D:\PROGRAMM FILES\QT\6.2.4\MSVC2019_64\INCLUDE\QTCORE\QCOREAPPLICATION.H
D:\PROGRAMM FILES\QT\6.2.4\MSVC2019_64\INCLUDE\QTCORE\QCOREEVENT.H
D:\PROGRAMM FILES\QT\6.2.4\MSVC2019_64\INCLUDE\QTCORE\QEVENTLOOP.H
D:\PROGRAMM FILES\QT\6.2.4\MSVC2019_64\INCLUDE\QTCORE\QNATIVEINTERFACE.H
D:\PROGRAMM FILES\QT\6.2.4\MSVC2019_64\INCLUDE\QTCORE\QCOREAPPLICATION_PLATFORM.H
D:\PROGRAMM FILES\QT\6.2.4\MSVC2019_64\INCLUDE\QTGUI\QGUIAPPLICATION.H
D:\PROGRAMM FILES\QT\6.2.4\MSVC2019_64\INCLUDE\QTGUI\QINPUTMETHOD.H
D:\PROGRAMM FILES\QT\6.2.4\MSVC2019_64\INCLUDE\QTCORE\QLOCALE.H
D:\PROGRAMM FILES\QT\6.2.4\MSVC2019_64\INCLUDE\QTGUI\QGUIAPPLICATION_PLATFORM.H
D:\PROGRAMM FILES\QT\6.2.4\MSVC2019_64\INCLUDE\QTWIDGETS\QMESSAGEBOX
D:\PROGRAMM FILES\QT\6.2.4\MSVC2019_64\INCLUDE\QTWIDGETS\QMESSAGEBOX.H
D:\PROGRAMM FILES\QT\6.2.4\MSVC2019_64\INCLUDE\QTWIDGETS\QDIALOG.H
D:\PROGRAMM FILES\QT\6.2.4\MSVC2019_64\INCLUDE\QTWIDGETS\QPUSHBUTTON
D:\PROGRAMM FILES\QT\6.2.4\MSVC2019_64\INCLUDE\QTWIDGETS\QPUSHBUTTON.H
D:\PROGRAMM FILES\QT\6.2.4\MSVC2019_64\INCLUDE\QTWIDGETS\QABSTRACTBUTTON.H
D:\PROGRAMM FILES\QT\6.2.4\MSVC2019_64\INCLUDE\QTGUI\QICON.H
D:\PROGRAMM FILES\QT\6.2.4\MSVC2019_64\INCLUDE\QTWIDGETS\QGRIDLAYOUT
D:\PROGRAMM FILES\QT\6.2.4\MSVC2019_64\INCLUDE\QTWIDGETS\QGRIDLAYOUT.H
D:\PROGRAMM FILES\QT\6.2.4\MSVC2019_64\INCLUDE\QTWIDGETS\QLAYOUT.H
D:\PROGRAMM FILES\QT\6.2.4\MSVC2019_64\INCLUDE\QTWIDGETS\QLAYOUTITEM.H
D:\PROGRAMM FILES\QT\6.2.4\MSVC2019_64\INCLUDE\QTWIDGETS\QBOXLAYOUT.H
