^D:\CODING\QTPROJECTS\TIC-TAC-TOE\TIC-TAC-TOE\X64\DEBUG\MAIN.OBJ|D:\CODING\QTPROJECTS\TIC-TAC-TOE\TIC-TAC-TOE\X64\DEBUG\MOC_TICTACTOE.OBJ|D:\CODING\QTPROJECTS\TIC-TAC-TOE\TIC-TAC-TOE\X64\DEBUG\QRC_TICTACTOE.OBJ|D:\CODING\QTPROJECTS\TIC-TAC-TOE\TIC-TAC-TOE\X64\DEBUG\TICTACTOE.OBJ
C:\PROGRAM FILES (X86)\WINDOWS KITS\10\LIB\10.0.22000.0\UM\X64\KERNEL32.LIB
C:\PROGRAM FILES (X86)\WINDOWS KITS\10\LIB\10.0.22000.0\UM\X64\USER32.LIB
C:\PROGRAM FILES (X86)\WINDOWS KITS\10\LIB\10.0.22000.0\UM\X64\GDI32.LIB
C:\PROGRAM FILES (X86)\WINDOWS KITS\10\LIB\10.0.22000.0\UM\X64\WINSPOOL.LIB
C:\PROGRAM FILES (X86)\WINDOWS KITS\10\LIB\10.0.22000.0\UM\X64\COMDLG32.LIB
C:\PROGRAM FILES (X86)\WINDOWS KITS\10\LIB\10.0.22000.0\UM\X64\ADVAPI32.LIB
C:\PROGRAM FILES (X86)\WINDOWS KITS\10\LIB\10.0.22000.0\UM\X64\SHELL32.LIB
C:\PROGRAM FILES (X86)\WINDOWS KITS\10\LIB\10.0.22000.0\UM\X64\OLE32.LIB
C:\PROGRAM FILES (X86)\WINDOWS KITS\10\LIB\10.0.22000.0\UM\X64\OLEAUT32.LIB
C:\PROGRAM FILES (X86)\WINDOWS KITS\10\LIB\10.0.22000.0\UM\X64\UUID.LIB
C:\PROGRAM FILES (X86)\WINDOWS KITS\10\LIB\10.0.22000.0\UM\X64\ODBC32.LIB
C:\PROGRAM FILES (X86)\WINDOWS KITS\10\LIB\10.0.22000.0\UM\X64\ODBCCP32.LIB
D:\PROGRAMM FILES\QT\6.2.4\MSVC2019_64\LIB\QT6WIDGETSD.LIB
D:\PROGRAMM FILES\QT\6.2.4\MSVC2019_64\LIB\QT6GUID.LIB
D:\PROGRAMM FILES\QT\6.2.4\MSVC2019_64\LIB\QT6CORED.LIB
D:\PROGRAMM FILES\QT\6.2.4\MSVC2019_64\LIB\QT6ENTRYPOINTD.LIB
D:\CODING\QTPROJECTS\TIC-TAC-TOE\TIC-TAC-TOE\X64\DEBUG\TICTACTOE.OBJ
D:\CODING\QTPROJECTS\TIC-TAC-TOE\TIC-TAC-TOE\X64\DEBUG\MAIN.OBJ
D:\CODING\QTPROJECTS\TIC-TAC-TOE\TIC-TAC-TOE\X64\DEBUG\QRC_TICTACTOE.OBJ
D:\CODING\QTPROJECTS\TIC-TAC-TOE\TIC-TAC-TOE\X64\DEBUG\MOC_TICTACTOE.OBJ
C:\WINDOWS\SYSTEM32\TZRES.DLL
C:\WINDOWS\GLOBALIZATION\SORTING\SORTDEFAULT.NLS
D:\CODING\QTPROJECTS\TIC-TAC-TOE\TIC-TAC-TOE\X64\DEBUG\QT.NATVIS
C:\PROGRAM FILES\MICROSOFT VISUAL STUDIO\2022\COMMUNITY\VC\TOOLS\MSVC\14.36.32532\LIB\X64\MSVCPRTD.LIB
C:\PROGRAM FILES\MICROSOFT VISUAL STUDIO\2022\COMMUNITY\VC\TOOLS\MSVC\14.36.32532\LIB\X64\MSVCRTD.LIB
C:\PROGRAM FILES\MICROSOFT VISUAL STUDIO\2022\COMMUNITY\VC\TOOLS\MSVC\14.36.32532\LIB\X64\OLDNAMES.LIB
C:\PROGRAM FILES\MICROSOFT VISUAL STUDIO\2022\COMMUNITY\VC\TOOLS\MSVC\14.36.32532\LIB\X64\VCRUNTIMED.LIB
C:\PROGRAM FILES (X86)\WINDOWS KITS\10\LIB\10.0.22000.0\UCRT\X64\UCRTD.LIB
D:\CODING\QTPROJECTS\TIC-TAC-TOE\TIC-TAC-TOE\X64\DEBUG\VC143.PDB
