^D:\CODING\QTPROJECTS\TIC-TAC-TOE\TIC-TAC-TOE\X64\DEBUG\MAIN.OBJ|D:\CODING\QTPROJECTS\TIC-TAC-TOE\TIC-TAC-TOE\X64\DEBUG\MOC_TICTACTOE.OBJ|D:\CODING\QTPROJECTS\TIC-TAC-TOE\TIC-TAC-TOE\X64\DEBUG\QRC_TICTACTOE.OBJ|D:\CODING\QTPROJECTS\TIC-TAC-TOE\TIC-TAC-TOE\X64\DEBUG\TICTACTOE.OBJ
/OUT:"D:\CODING\QTPROJECTS\TIC-TAC-TOE\X64\DEBUG\TIC-TAC-TOE.EXE" /NOLOGO KERNEL32.LIB USER32.LIB GDI32.LIB WINSPOOL.LIB COMDLG32.LIB ADVAPI32.LIB SHELL32.LIB OLE32.LIB OLEAUT32.LIB UUID.LIB ODBC32.LIB ODBCCP32.LIB "D:\PROGRAMM FILES\QT\6.2.4\MSVC2019_64\LIB\QT6WIDGETSD.LIB" "D:\PROGRAMM FILES\QT\6.2.4\MSVC2019_64\LIB\QT6GUID.LIB" "D:\PROGRAMM FILES\QT\6.2.4\MSVC2019_64\LIB\QT6CORED.LIB" "D:\PROGRAMM FILES\QT\6.2.4\MSVC2019_64\LIB\QT6ENTRYPOINTD.LIB" SHELL32.LIB /MANIFEST /MANIFESTUAC:"level='asInvoker' uiAccess='false'" /manifest:embed /DEBUG /PDB:"D:\CODING\QTPROJECTS\TIC-TAC-TOE\X64\DEBUG\TIC-TAC-TOE.PDB" /SUBSYSTEM:WINDOWS /TLBID:1 /DYNAMICBASE /NXCOMPAT /IMPLIB:"D:\CODING\QTPROJECTS\TIC-TAC-TOE\X64\DEBUG\TIC-TAC-TOE.LIB" /MACHINE:X64 /NATVIS:"x64\Debug\\qt.natvis" "/MANIFESTDEPENDENCY:type='win32' name='Microsoft.Windows.Common-Controls' version='6.0.0.0' publicKeyToken='6595b64144ccf1df' language='*' processorArchitecture='*'" X64\DEBUG\TICTACTOE.OBJ
X64\DEBUG\MAIN.OBJ
X64\DEBUG\QRC_TICTACTOE.OBJ
X64\DEBUG\MOC_TICTACTOE.OBJ
